%YAML 1.1
%TAG !u! tag:unity3d.com,2011:
--- !u!29 &1
OcclusionCullingSettings:
  m_ObjectHideFlags: 0
  serializedVersion: 2
  m_OcclusionBakeSettings:
    smallestOccluder: 5
    smallestHole: 0.25
    backfaceThreshold: 100
  m_SceneGUID: 00000000000000000000000000000000
  m_OcclusionCullingData: {fileID: 0}
--- !u!104 &2
RenderSettings:
  m_ObjectHideFlags: 0
  serializedVersion: 8
  m_Fog: 0
  m_FogColor: {r: 0.5, g: 0.5, b: 0.5, a: 1}
  m_FogMode: 3
  m_FogDensity: 0.01
  m_LinearFogStart: 0
  m_LinearFogEnd: 300
  m_AmbientSkyColor: {r: 0.2, g: 0.2, b: 0.2, a: 1}
  m_AmbientEquatorColor: {r: 0.2, g: 0.2, b: 0.2, a: 1}
  m_AmbientGroundColor: {r: 0.2, g: 0.2, b: 0.2, a: 1}
  m_AmbientIntensity: 1
  m_AmbientMode: 3
  m_SubtractiveShadowColor: {r: 0.42, g: 0.478, b: 0.627, a: 1}
  m_SkyboxMaterial: {fileID: 0}
  m_HaloStrength: 0.5
  m_FlareStrength: 1
  m_FlareFadeSpeed: 3
  m_HaloTexture: {fileID: 0}
  m_SpotCookie: {fileID: 10001, guid: 0000000000000000e000000000000000, type: 0}
  m_DefaultReflectionMode: 0
  m_DefaultReflectionResolution: 128
  m_ReflectionBounces: 1
  m_ReflectionIntensity: 1
  m_CustomReflection: {fileID: 0}
  m_Sun: {fileID: 0}
  m_IndirectSpecularColor: {r: 0, g: 0, b: 0, a: 1}
--- !u!157 &4
LightmapSettings:
  m_ObjectHideFlags: 0
  serializedVersion: 11
  m_GIWorkflowMode: 1
  m_GISettings:
    serializedVersion: 2
    m_BounceScale: 1
    m_IndirectOutputScale: 1
    m_AlbedoBoost: 1
    m_TemporalCoherenceThreshold: 1
    m_EnvironmentLightingMode: 0
    m_EnableBakedLightmaps: 1
    m_EnableRealtimeLightmaps: 0
  m_LightmapEditorSettings:
    serializedVersion: 9
    m_Resolution: 1
    m_BakeResolution: 50
    m_TextureWidth: 1024
    m_TextureHeight: 1024
    m_AO: 1
    m_AOMaxDistance: 1
    m_CompAOExponent: 1
    m_CompAOExponentDirect: 0
    m_Padding: 2
    m_LightmapParameters: {fileID: 0}
    m_LightmapsBakeMode: 1
    m_TextureCompression: 0
    m_FinalGather: 0
    m_FinalGatherFiltering: 1
    m_FinalGatherRayCount: 256
    m_ReflectionCompression: 2
    m_MixedBakeMode: 1
    m_BakeBackend: 0
    m_PVRSampling: 1
    m_PVRDirectSampleCount: 32
    m_PVRSampleCount: 500
    m_PVRBounces: 2
    m_PVRFiltering: 0
    m_PVRFilteringMode: 1
    m_PVRCulling: 1
    m_PVRFilteringGaussRadiusDirect: 1
    m_PVRFilteringGaussRadiusIndirect: 5
    m_PVRFilteringGaussRadiusAO: 2
    m_PVRFilteringAtrousColorSigma: 1
    m_PVRFilteringAtrousNormalSigma: 1
    m_PVRFilteringAtrousPositionSigma: 1
  m_LightingDataAsset: {fileID: 0}
  m_UseShadowmask: 0
--- !u!196 &5
NavMeshSettings:
  serializedVersion: 2
  m_ObjectHideFlags: 0
  m_BuildSettings:
    serializedVersion: 2
    agentTypeID: 0
    agentRadius: 0.5
    agentHeight: 2
    agentSlope: 45
    agentClimb: 0.4
    ledgeDropHeight: 0
    maxJumpAcrossDistance: 0
    minRegionArea: 2
    manualCellSize: 0
    cellSize: 0.16666666
    manualTileSize: 0
    tileSize: 256
    accuratePlacement: 0
  m_NavMeshData: {fileID: 0}
--- !u!1001 &6620303
Prefab:
  m_ObjectHideFlags: 0
  serializedVersion: 2
  m_Modification:
    m_TransformParent: {fileID: 0}
    m_Modifications:
    - target: {fileID: 464016, guid: 34500e1d4b7155c4890dc22dc1e6181c, type: 2}
      propertyPath: m_LocalPosition.x
      value: 26.4441414
      objectReference: {fileID: 0}
    - target: {fileID: 464016, guid: 34500e1d4b7155c4890dc22dc1e6181c, type: 2}
      propertyPath: m_LocalPosition.y
      value: -3.09277868e-17
      objectReference: {fileID: 0}
    - target: {fileID: 464016, guid: 34500e1d4b7155c4890dc22dc1e6181c, type: 2}
      propertyPath: m_LocalPosition.z
      value: 28.5757885
      objectReference: {fileID: 0}
    - target: {fileID: 464016, guid: 34500e1d4b7155c4890dc22dc1e6181c, type: 2}
      propertyPath: m_LocalRotation.x
      value: 0
      objectReference: {fileID: 0}
    - target: {fileID: 464016, guid: 34500e1d4b7155c4890dc22dc1e6181c, type: 2}
      propertyPath: m_LocalRotation.y
      value: 0
      objectReference: {fileID: 0}
    - target: {fileID: 464016, guid: 34500e1d4b7155c4890dc22dc1e6181c, type: 2}
      propertyPath: m_LocalRotation.z
      value: 0
      objectReference: {fileID: 0}
    - target: {fileID: 464016, guid: 34500e1d4b7155c4890dc22dc1e6181c, type: 2}
      propertyPath: m_LocalRotation.w
      value: 1
      objectReference: {fileID: 0}
    - target: {fileID: 464016, guid: 34500e1d4b7155c4890dc22dc1e6181c, type: 2}
      propertyPath: m_RootOrder
      value: 0
      objectReference: {fileID: 0}
    m_RemovedComponents: []
  m_ParentPrefab: {fileID: 100100000, guid: 34500e1d4b7155c4890dc22dc1e6181c, type: 2}
  m_RootGameObject: {fileID: 874720333}
  m_IsPrefabParent: 0
--- !u!1001 &154861890
Prefab:
  m_ObjectHideFlags: 0
  serializedVersion: 2
  m_Modification:
    m_TransformParent: {fileID: 0}
    m_Modifications:
    - target: {fileID: 403096, guid: ad27bebd4cdf77344a4a75889655f7bd, type: 2}
      propertyPath: m_LocalPosition.x
      value: 38.2535133
      objectReference: {fileID: 0}
    - target: {fileID: 403096, guid: ad27bebd4cdf77344a4a75889655f7bd, type: 2}
      propertyPath: m_LocalPosition.y
      value: -3.18084099e-17
      objectReference: {fileID: 0}
    - target: {fileID: 403096, guid: ad27bebd4cdf77344a4a75889655f7bd, type: 2}
      propertyPath: m_LocalPosition.z
      value: 29.5481358
      objectReference: {fileID: 0}
    - target: {fileID: 403096, guid: ad27bebd4cdf77344a4a75889655f7bd, type: 2}
      propertyPath: m_LocalRotation.x
      value: 0
      objectReference: {fileID: 0}
    - target: {fileID: 403096, guid: ad27bebd4cdf77344a4a75889655f7bd, type: 2}
      propertyPath: m_LocalRotation.y
      value: 0
      objectReference: {fileID: 0}
    - target: {fileID: 403096, guid: ad27bebd4cdf77344a4a75889655f7bd, type: 2}
      propertyPath: m_LocalRotation.z
      value: 0
      objectReference: {fileID: 0}
    - target: {fileID: 403096, guid: ad27bebd4cdf77344a4a75889655f7bd, type: 2}
      propertyPath: m_LocalRotation.w
      value: 1
      objectReference: {fileID: 0}
    - target: {fileID: 403096, guid: ad27bebd4cdf77344a4a75889655f7bd, type: 2}
      propertyPath: m_RootOrder
      value: 0
      objectReference: {fileID: 0}
    m_RemovedComponents: []
  m_ParentPrefab: {fileID: 100100000, guid: ad27bebd4cdf77344a4a75889655f7bd, type: 2}
  m_RootGameObject: {fileID: 1724928180}
  m_IsPrefabParent: 0
--- !u!1001 &156893701
Prefab:
  m_ObjectHideFlags: 0
  serializedVersion: 2
  m_Modification:
    m_TransformParent: {fileID: 0}
    m_Modifications:
    - target: {fileID: 476894, guid: 26a554db9f81cf1469052951012fa4ce, type: 2}
      propertyPath: m_LocalPosition.x
      value: 38.5452156
      objectReference: {fileID: 0}
    - target: {fileID: 476894, guid: 26a554db9f81cf1469052951012fa4ce, type: 2}
      propertyPath: m_LocalPosition.y
      value: -2.17212318e-17
      objectReference: {fileID: 0}
    - target: {fileID: 476894, guid: 26a554db9f81cf1469052951012fa4ce, type: 2}
      propertyPath: m_LocalPosition.z
      value: 20.352953
      objectReference: {fileID: 0}
    - target: {fileID: 476894, guid: 26a554db9f81cf1469052951012fa4ce, type: 2}
      propertyPath: m_LocalRotation.x
      value: 0
      objectReference: {fileID: 0}
    - target: {fileID: 476894, guid: 26a554db9f81cf1469052951012fa4ce, type: 2}
      propertyPath: m_LocalRotation.y
      value: 0
      objectReference: {fileID: 0}
    - target: {fileID: 476894, guid: 26a554db9f81cf1469052951012fa4ce, type: 2}
      propertyPath: m_LocalRotation.z
      value: 0
      objectReference: {fileID: 0}
    - target: {fileID: 476894, guid: 26a554db9f81cf1469052951012fa4ce, type: 2}
      propertyPath: m_LocalRotation.w
      value: 1
      objectReference: {fileID: 0}
    - target: {fileID: 476894, guid: 26a554db9f81cf1469052951012fa4ce, type: 2}
      propertyPath: m_RootOrder
      value: 0
      objectReference: {fileID: 0}
    m_RemovedComponents: []
  m_ParentPrefab: {fileID: 100100000, guid: 26a554db9f81cf1469052951012fa4ce, type: 2}
  m_RootGameObject: {fileID: 1792650901}
  m_IsPrefabParent: 0
--- !u!1001 &160987009
Prefab:
  m_ObjectHideFlags: 0
  serializedVersion: 2
  m_Modification:
    m_TransformParent: {fileID: 0}
    m_Modifications:
    - target: {fileID: 400000, guid: 04481698c1b2e2248a8d5eb7f59da022, type: 3}
      propertyPath: m_LocalPosition.x
      value: 52.8499985
      objectReference: {fileID: 0}
    - target: {fileID: 400000, guid: 04481698c1b2e2248a8d5eb7f59da022, type: 3}
      propertyPath: m_LocalPosition.y
      value: .0500000007
      objectReference: {fileID: 0}
    - target: {fileID: 400000, guid: 04481698c1b2e2248a8d5eb7f59da022, type: 3}
      propertyPath: m_LocalPosition.z
      value: 37.7000008
      objectReference: {fileID: 0}
    - target: {fileID: 400000, guid: 04481698c1b2e2248a8d5eb7f59da022, type: 3}
      propertyPath: m_LocalRotation.x
      value: -.707106888
      objectReference: {fileID: 0}
    - target: {fileID: 400000, guid: 04481698c1b2e2248a8d5eb7f59da022, type: 3}
      propertyPath: m_LocalRotation.y
      value: 0
      objectReference: {fileID: 0}
    - target: {fileID: 400000, guid: 04481698c1b2e2248a8d5eb7f59da022, type: 3}
      propertyPath: m_LocalRotation.z
      value: -0
      objectReference: {fileID: 0}
    - target: {fileID: 400000, guid: 04481698c1b2e2248a8d5eb7f59da022, type: 3}
      propertyPath: m_LocalRotation.w
      value: .707106769
      objectReference: {fileID: 0}
    - target: {fileID: 400000, guid: 04481698c1b2e2248a8d5eb7f59da022, type: 3}
      propertyPath: m_RootOrder
      value: 4
      objectReference: {fileID: 0}
    m_RemovedComponents: []
  m_ParentPrefab: {fileID: 100100000, guid: 04481698c1b2e2248a8d5eb7f59da022, type: 3}
  m_RootGameObject: {fileID: 1488593789}
  m_IsPrefabParent: 0
--- !u!1001 &212415768
Prefab:
  m_ObjectHideFlags: 0
  serializedVersion: 2
  m_Modification:
    m_TransformParent: {fileID: 0}
    m_Modifications:
    - target: {fileID: 401998, guid: 8bde4c067c11eee43aa10dd0ce5c6ef2, type: 2}
      propertyPath: m_LocalPosition.x
      value: 47.8811798
      objectReference: {fileID: 0}
    - target: {fileID: 401998, guid: 8bde4c067c11eee43aa10dd0ce5c6ef2, type: 2}
      propertyPath: m_LocalPosition.y
      value: -3.13668543e-17
      objectReference: {fileID: 0}
    - target: {fileID: 401998, guid: 8bde4c067c11eee43aa10dd0ce5c6ef2, type: 2}
      propertyPath: m_LocalPosition.z
      value: 29.3643093
      objectReference: {fileID: 0}
    - target: {fileID: 401998, guid: 8bde4c067c11eee43aa10dd0ce5c6ef2, type: 2}
      propertyPath: m_LocalRotation.x
      value: 0
      objectReference: {fileID: 0}
    - target: {fileID: 401998, guid: 8bde4c067c11eee43aa10dd0ce5c6ef2, type: 2}
      propertyPath: m_LocalRotation.y
      value: 0
      objectReference: {fileID: 0}
    - target: {fileID: 401998, guid: 8bde4c067c11eee43aa10dd0ce5c6ef2, type: 2}
      propertyPath: m_LocalRotation.z
      value: 0
      objectReference: {fileID: 0}
    - target: {fileID: 401998, guid: 8bde4c067c11eee43aa10dd0ce5c6ef2, type: 2}
      propertyPath: m_LocalRotation.w
      value: 1
      objectReference: {fileID: 0}
    - target: {fileID: 401998, guid: 8bde4c067c11eee43aa10dd0ce5c6ef2, type: 2}
      propertyPath: m_RootOrder
      value: 0
      objectReference: {fileID: 0}
    m_RemovedComponents: []
  m_ParentPrefab: {fileID: 100100000, guid: 8bde4c067c11eee43aa10dd0ce5c6ef2, type: 2}
  m_RootGameObject: {fileID: 405066805}
  m_IsPrefabParent: 0
--- !u!1001 &243915501
Prefab:
  m_ObjectHideFlags: 0
  serializedVersion: 2
  m_Modification:
    m_TransformParent: {fileID: 0}
    m_Modifications:
    - target: {fileID: 489938, guid: e0e01ec14bfc6404e8471dc85cadfebd, type: 2}
      propertyPath: m_LocalPosition.x
      value: 28.8379173
      objectReference: {fileID: 0}
    - target: {fileID: 489938, guid: e0e01ec14bfc6404e8471dc85cadfebd, type: 2}
      propertyPath: m_LocalPosition.y
      value: -2.05476859e-17
      objectReference: {fileID: 0}
    - target: {fileID: 489938, guid: e0e01ec14bfc6404e8471dc85cadfebd, type: 2}
      propertyPath: m_LocalPosition.z
      value: 19.2615585
      objectReference: {fileID: 0}
    - target: {fileID: 489938, guid: e0e01ec14bfc6404e8471dc85cadfebd, type: 2}
      propertyPath: m_LocalRotation.x
      value: 0
      objectReference: {fileID: 0}
    - target: {fileID: 489938, guid: e0e01ec14bfc6404e8471dc85cadfebd, type: 2}
      propertyPath: m_LocalRotation.y
      value: 0
      objectReference: {fileID: 0}
    - target: {fileID: 489938, guid: e0e01ec14bfc6404e8471dc85cadfebd, type: 2}
      propertyPath: m_LocalRotation.z
      value: 0
      objectReference: {fileID: 0}
    - target: {fileID: 489938, guid: e0e01ec14bfc6404e8471dc85cadfebd, type: 2}
      propertyPath: m_LocalRotation.w
      value: 1
      objectReference: {fileID: 0}
    - target: {fileID: 489938, guid: e0e01ec14bfc6404e8471dc85cadfebd, type: 2}
      propertyPath: m_RootOrder
      value: 0
      objectReference: {fileID: 0}
    m_RemovedComponents: []
  m_ParentPrefab: {fileID: 100100000, guid: e0e01ec14bfc6404e8471dc85cadfebd, type: 2}
  m_RootGameObject: {fileID: 1846695583}
  m_IsPrefabParent: 0
--- !u!1001 &268965249
Prefab:
  m_ObjectHideFlags: 0
  serializedVersion: 2
  m_Modification:
    m_TransformParent: {fileID: 0}
    m_Modifications:
    - target: {fileID: 465264, guid: 40b641cefef37b147b40453898c94c69, type: 2}
      propertyPath: m_LocalPosition.x
      value: 26.104023
      objectReference: {fileID: 0}
    - target: {fileID: 465264, guid: 40b641cefef37b147b40453898c94c69, type: 2}
      propertyPath: m_LocalPosition.y
      value: -4.00415172e-17
      objectReference: {fileID: 0}
    - target: {fileID: 465264, guid: 40b641cefef37b147b40453898c94c69, type: 2}
      propertyPath: m_LocalPosition.z
      value: 37.8347702
      objectReference: {fileID: 0}
    - target: {fileID: 465264, guid: 40b641cefef37b147b40453898c94c69, type: 2}
      propertyPath: m_LocalRotation.x
      value: 0
      objectReference: {fileID: 0}
    - target: {fileID: 465264, guid: 40b641cefef37b147b40453898c94c69, type: 2}
      propertyPath: m_LocalRotation.y
      value: 0
      objectReference: {fileID: 0}
    - target: {fileID: 465264, guid: 40b641cefef37b147b40453898c94c69, type: 2}
      propertyPath: m_LocalRotation.z
      value: 0
      objectReference: {fileID: 0}
    - target: {fileID: 465264, guid: 40b641cefef37b147b40453898c94c69, type: 2}
      propertyPath: m_LocalRotation.w
      value: 1
      objectReference: {fileID: 0}
    - target: {fileID: 465264, guid: 40b641cefef37b147b40453898c94c69, type: 2}
      propertyPath: m_RootOrder
      value: 0
      objectReference: {fileID: 0}
    m_RemovedComponents: []
  m_ParentPrefab: {fileID: 100100000, guid: 40b641cefef37b147b40453898c94c69, type: 2}
  m_RootGameObject: {fileID: 548829430}
  m_IsPrefabParent: 0
--- !u!1001 &359158555
Prefab:
  m_ObjectHideFlags: 0
  serializedVersion: 2
  m_Modification:
    m_TransformParent: {fileID: 0}
    m_Modifications:
    - target: {fileID: 442224, guid: 18cc4e56883a25347965f7758ed71742, type: 2}
      propertyPath: m_LocalPosition.x
      value: 48.0499992
      objectReference: {fileID: 0}
    - target: {fileID: 442224, guid: 18cc4e56883a25347965f7758ed71742, type: 2}
      propertyPath: m_LocalPosition.y
      value: .409999996
      objectReference: {fileID: 0}
    - target: {fileID: 442224, guid: 18cc4e56883a25347965f7758ed71742, type: 2}
      propertyPath: m_LocalPosition.z
      value: 37.9900017
      objectReference: {fileID: 0}
    - target: {fileID: 442224, guid: 18cc4e56883a25347965f7758ed71742, type: 2}
      propertyPath: m_LocalRotation.x
      value: 0
      objectReference: {fileID: 0}
    - target: {fileID: 442224, guid: 18cc4e56883a25347965f7758ed71742, type: 2}
      propertyPath: m_LocalRotation.y
      value: 0
      objectReference: {fileID: 0}
    - target: {fileID: 442224, guid: 18cc4e56883a25347965f7758ed71742, type: 2}
      propertyPath: m_LocalRotation.z
      value: 0
      objectReference: {fileID: 0}
    - target: {fileID: 442224, guid: 18cc4e56883a25347965f7758ed71742, type: 2}
      propertyPath: m_LocalRotation.w
      value: 1
      objectReference: {fileID: 0}
    - target: {fileID: 442224, guid: 18cc4e56883a25347965f7758ed71742, type: 2}
      propertyPath: m_RootOrder
      value: 2
      objectReference: {fileID: 0}
    m_RemovedComponents: []
  m_ParentPrefab: {fileID: 100100000, guid: 18cc4e56883a25347965f7758ed71742, type: 2}
  m_RootGameObject: {fileID: 1114219651}
  m_IsPrefabParent: 0
--- !u!1 &377730164
GameObject:
  m_ObjectHideFlags: 0
  m_PrefabParentObject: {fileID: 100000, guid: bd45e59577463714f9441db4b88afd7c, type: 3}
  m_PrefabInternal: {fileID: 1504620716}
  serializedVersion: 5
  m_Component:
  - component: {fileID: 377730169}
  - component: {fileID: 377730168}
  - component: {fileID: 377730167}
  - component: {fileID: 377730166}
  - component: {fileID: 377730165}
  m_Layer: 0
  m_Name: Rock01
  m_TagString: Untagged
  m_Icon: {fileID: 0}
  m_NavMeshLayer: 0
  m_StaticEditorFlags: 0
  m_IsActive: 1
--- !u!95 &377730165
Animator:
  serializedVersion: 3
  m_ObjectHideFlags: 0
  m_PrefabParentObject: {fileID: 9500000, guid: bd45e59577463714f9441db4b88afd7c,
    type: 3}
  m_PrefabInternal: {fileID: 1504620716}
  m_GameObject: {fileID: 377730164}
  m_Enabled: 1
  m_Avatar: {fileID: 9000000, guid: bd45e59577463714f9441db4b88afd7c, type: 3}
  m_Controller: {fileID: 0}
  m_CullingMode: 0
  m_UpdateMode: 0
  m_ApplyRootMotion: 0
  m_LinearVelocityBlending: 0
  m_WarningMessage: 
  m_HasTransformHierarchy: 1
  m_AllowConstantClipSamplingOptimization: 1
--- !u!64 &377730166
MeshCollider:
  m_ObjectHideFlags: 0
  m_PrefabParentObject: {fileID: 6400000, guid: bd45e59577463714f9441db4b88afd7c,
    type: 3}
  m_PrefabInternal: {fileID: 1504620716}
  m_GameObject: {fileID: 377730164}
  m_Material: {fileID: 0}
  m_IsTrigger: 0
  m_Enabled: 1
  serializedVersion: 2
  m_Convex: 0
  m_InflateMesh: 0
  m_SkinWidth: 0.01
  m_Mesh: {fileID: 4300000, guid: bd45e59577463714f9441db4b88afd7c, type: 3}
--- !u!23 &377730167
MeshRenderer:
  m_ObjectHideFlags: 0
  m_PrefabParentObject: {fileID: 2300000, guid: bd45e59577463714f9441db4b88afd7c,
    type: 3}
  m_PrefabInternal: {fileID: 1504620716}
  m_GameObject: {fileID: 377730164}
  m_Enabled: 1
  m_CastShadows: 1
  m_ReceiveShadows: 1
  m_MotionVectors: 1
  m_LightProbeUsage: 1
  m_ReflectionProbeUsage: 1
  m_Materials:
  - {fileID: 2100000, guid: e0c48663337810647b4ba51e5e9a6028, type: 2}
  m_StaticBatchInfo:
    firstSubMesh: 0
    subMeshCount: 0
  m_StaticBatchRoot: {fileID: 0}
  m_ProbeAnchor: {fileID: 0}
  m_LightProbeVolumeOverride: {fileID: 0}
  m_ScaleInLightmap: 1
  m_PreserveUVs: 0
  m_IgnoreNormalsForChartDetection: 0
  m_ImportantGI: 0
  m_SelectedEditorRenderState: 3
  m_MinimumChartSize: 4
  m_AutoUVMaxDistance: 0.5
  m_AutoUVMaxAngle: 89
  m_LightmapParameters: {fileID: 0}
  m_SortingLayerID: 0
  m_SortingLayer: 0
  m_SortingOrder: 0
--- !u!33 &377730168
MeshFilter:
  m_ObjectHideFlags: 0
  m_PrefabParentObject: {fileID: 3300000, guid: bd45e59577463714f9441db4b88afd7c,
    type: 3}
  m_PrefabInternal: {fileID: 1504620716}
  m_GameObject: {fileID: 377730164}
  m_Mesh: {fileID: 4300000, guid: bd45e59577463714f9441db4b88afd7c, type: 3}
--- !u!4 &377730169
Transform:
  m_ObjectHideFlags: 0
  m_PrefabParentObject: {fileID: 400000, guid: bd45e59577463714f9441db4b88afd7c, type: 3}
  m_PrefabInternal: {fileID: 1504620716}
  m_GameObject: {fileID: 377730164}
  m_LocalRotation: {x: -0.00000003774895, y: 0, z: -0, w: 1}
  m_LocalPosition: {x: 52.7, y: 0.05, z: 29.58}
  m_LocalScale: {x: 1, y: 1, z: 1}
  m_Children: []
  m_Father: {fileID: 0}
  m_RootOrder: 13
  m_LocalEulerAnglesHint: {x: 0, y: 0, z: 0}
--- !u!1 &405066805
GameObject:
  m_ObjectHideFlags: 0
  m_PrefabParentObject: {fileID: 101998, guid: 8bde4c067c11eee43aa10dd0ce5c6ef2, type: 2}
  m_PrefabInternal: {fileID: 212415768}
  serializedVersion: 5
  m_Component:
  - component: {fileID: 405066810}
  - component: {fileID: 405066809}
  - component: {fileID: 405066808}
  - component: {fileID: 405066807}
  - component: {fileID: 405066806}
  m_Layer: 0
  m_Name: BroadLeaf01a3
  m_TagString: Untagged
  m_Icon: {fileID: 0}
  m_NavMeshLayer: 0
  m_StaticEditorFlags: 0
  m_IsActive: 1
--- !u!65 &405066806
BoxCollider:
  m_ObjectHideFlags: 0
  m_PrefabParentObject: {fileID: 6524864, guid: 8bde4c067c11eee43aa10dd0ce5c6ef2,
    type: 2}
  m_PrefabInternal: {fileID: 212415768}
  m_GameObject: {fileID: 405066805}
  m_Material: {fileID: 0}
  m_IsTrigger: 0
  m_Enabled: 1
  serializedVersion: 2
  m_Size: {x: 1.95, y: 18.836617, z: 2.3}
  m_Center: {x: -0.08867097, y: 9.17, z: -0.13}
--- !u!23 &405066807
MeshRenderer:
  m_ObjectHideFlags: 0
  m_PrefabParentObject: {fileID: 2301998, guid: 8bde4c067c11eee43aa10dd0ce5c6ef2,
    type: 2}
  m_PrefabInternal: {fileID: 212415768}
  m_GameObject: {fileID: 405066805}
  m_Enabled: 1
  m_CastShadows: 1
  m_ReceiveShadows: 1
  m_MotionVectors: 1
  m_LightProbeUsage: 0
  m_ReflectionProbeUsage: 1
  m_Materials:
  - {fileID: 2101998, guid: 8bde4c067c11eee43aa10dd0ce5c6ef2, type: 2}
  - {fileID: 2101996, guid: 8bde4c067c11eee43aa10dd0ce5c6ef2, type: 2}
  m_StaticBatchInfo:
    firstSubMesh: 0
    subMeshCount: 0
  m_StaticBatchRoot: {fileID: 0}
  m_ProbeAnchor: {fileID: 0}
  m_LightProbeVolumeOverride: {fileID: 0}
  m_ScaleInLightmap: 1
  m_PreserveUVs: 0
  m_IgnoreNormalsForChartDetection: 0
  m_ImportantGI: 0
  m_SelectedEditorRenderState: 3
  m_MinimumChartSize: 4
  m_AutoUVMaxDistance: 0.5
  m_AutoUVMaxAngle: 89
  m_LightmapParameters: {fileID: 0}
  m_SortingLayerID: 0
  m_SortingLayer: 0
  m_SortingOrder: 0
--- !u!33 &405066808
MeshFilter:
  m_ObjectHideFlags: 0
  m_PrefabParentObject: {fileID: 3301998, guid: 8bde4c067c11eee43aa10dd0ce5c6ef2,
    type: 2}
  m_PrefabInternal: {fileID: 212415768}
  m_GameObject: {fileID: 405066805}
  m_Mesh: {fileID: 4301998, guid: 8bde4c067c11eee43aa10dd0ce5c6ef2, type: 2}
--- !u!193 &405066809
Tree:
  m_ObjectHideFlags: 0
  m_PrefabParentObject: {fileID: 19301998, guid: 8bde4c067c11eee43aa10dd0ce5c6ef2,
    type: 2}
  m_PrefabInternal: {fileID: 212415768}
  m_GameObject: {fileID: 405066805}
  m_SpeedTreeWindAsset: {fileID: 0}
  m_TreeData: {fileID: 11401998, guid: 8bde4c067c11eee43aa10dd0ce5c6ef2, type: 2}
--- !u!4 &405066810
Transform:
  m_ObjectHideFlags: 0
  m_PrefabParentObject: {fileID: 401998, guid: 8bde4c067c11eee43aa10dd0ce5c6ef2, type: 2}
  m_PrefabInternal: {fileID: 212415768}
  m_GameObject: {fileID: 405066805}
  m_LocalRotation: {x: 0, y: 0, z: 0, w: 1}
  m_LocalPosition: {x: 47.88118, y: -3.1366854e-17, z: 29.36431}
  m_LocalScale: {x: 1, y: 1, z: 1}
  m_Children: []
  m_Father: {fileID: 0}
  m_RootOrder: 0
  m_LocalEulerAnglesHint: {x: 0, y: 0, z: 0}
--- !u!1 &407323924
GameObject:
  m_ObjectHideFlags: 0
  m_PrefabParentObject: {fileID: 134380, guid: c999933c7e676e141a05cbf15ef402cd, type: 2}
  m_PrefabInternal: {fileID: 1240039814}
  serializedVersion: 5
  m_Component:
  - component: {fileID: 407323929}
  - component: {fileID: 407323928}
  - component: {fileID: 407323927}
  - component: {fileID: 407323926}
  - component: {fileID: 407323925}
  m_Layer: 0
  m_Name: BroadLeaf01a1
  m_TagString: Untagged
  m_Icon: {fileID: 0}
  m_NavMeshLayer: 0
  m_StaticEditorFlags: 0
  m_IsActive: 1
--- !u!65 &407323925
BoxCollider:
  m_ObjectHideFlags: 0
  m_PrefabParentObject: {fileID: 6565366, guid: c999933c7e676e141a05cbf15ef402cd,
    type: 2}
  m_PrefabInternal: {fileID: 1240039814}
  m_GameObject: {fileID: 407323924}
  m_Material: {fileID: 0}
  m_IsTrigger: 0
  m_Enabled: 1
  serializedVersion: 2
  m_Size: {x: 0.78, y: 7.05, z: 0.81}
  m_Center: {x: 0.013287663, y: 3.65, z: 0.07}
--- !u!23 &407323926
MeshRenderer:
  m_ObjectHideFlags: 0
  m_PrefabParentObject: {fileID: 2334380, guid: c999933c7e676e141a05cbf15ef402cd,
    type: 2}
  m_PrefabInternal: {fileID: 1240039814}
  m_GameObject: {fileID: 407323924}
  m_Enabled: 1
  m_CastShadows: 1
  m_ReceiveShadows: 1
  m_MotionVectors: 1
  m_LightProbeUsage: 0
  m_ReflectionProbeUsage: 1
  m_Materials:
  - {fileID: 2134380, guid: c999933c7e676e141a05cbf15ef402cd, type: 2}
  - {fileID: 2134378, guid: c999933c7e676e141a05cbf15ef402cd, type: 2}
  m_StaticBatchInfo:
    firstSubMesh: 0
    subMeshCount: 0
  m_StaticBatchRoot: {fileID: 0}
  m_ProbeAnchor: {fileID: 0}
  m_LightProbeVolumeOverride: {fileID: 0}
  m_ScaleInLightmap: 1
  m_PreserveUVs: 0
  m_IgnoreNormalsForChartDetection: 0
  m_ImportantGI: 0
  m_SelectedEditorRenderState: 3
  m_MinimumChartSize: 4
  m_AutoUVMaxDistance: 0.5
  m_AutoUVMaxAngle: 89
  m_LightmapParameters: {fileID: 0}
  m_SortingLayerID: 0
  m_SortingLayer: 0
  m_SortingOrder: 0
--- !u!33 &407323927
MeshFilter:
  m_ObjectHideFlags: 0
  m_PrefabParentObject: {fileID: 3334380, guid: c999933c7e676e141a05cbf15ef402cd,
    type: 2}
  m_PrefabInternal: {fileID: 1240039814}
  m_GameObject: {fileID: 407323924}
  m_Mesh: {fileID: 4334380, guid: c999933c7e676e141a05cbf15ef402cd, type: 2}
--- !u!193 &407323928
Tree:
  m_ObjectHideFlags: 0
  m_PrefabParentObject: {fileID: 19334380, guid: c999933c7e676e141a05cbf15ef402cd,
    type: 2}
  m_PrefabInternal: {fileID: 1240039814}
  m_GameObject: {fileID: 407323924}
  m_SpeedTreeWindAsset: {fileID: 0}
  m_TreeData: {fileID: 11434380, guid: c999933c7e676e141a05cbf15ef402cd, type: 2}
--- !u!4 &407323929
Transform:
  m_ObjectHideFlags: 0
  m_PrefabParentObject: {fileID: 434380, guid: c999933c7e676e141a05cbf15ef402cd, type: 2}
  m_PrefabInternal: {fileID: 1240039814}
  m_GameObject: {fileID: 407323924}
  m_LocalRotation: {x: 0, y: 0, z: 0, w: 1}
  m_LocalPosition: {x: 53.33, y: -0, z: 21.59}
  m_LocalScale: {x: 1, y: 1, z: 1}
  m_Children: []
  m_Father: {fileID: 0}
  m_RootOrder: 11
  m_LocalEulerAnglesHint: {x: 0, y: 0, z: 0}
--- !u!1 &548829430
GameObject:
  m_ObjectHideFlags: 0
  m_PrefabParentObject: {fileID: 165264, guid: 40b641cefef37b147b40453898c94c69, type: 2}
  m_PrefabInternal: {fileID: 268965249}
  serializedVersion: 5
  m_Component:
  - component: {fileID: 548829435}
  - component: {fileID: 548829434}
  - component: {fileID: 548829433}
  - component: {fileID: 548829432}
  - component: {fileID: 548829431}
  m_Layer: 0
  m_Name: BroadLeaf02a1
  m_TagString: Untagged
  m_Icon: {fileID: 0}
  m_NavMeshLayer: 0
  m_StaticEditorFlags: 0
  m_IsActive: 1
--- !u!65 &548829431
BoxCollider:
  m_ObjectHideFlags: 0
  m_PrefabParentObject: {fileID: 6524180, guid: 40b641cefef37b147b40453898c94c69,
    type: 2}
  m_PrefabInternal: {fileID: 268965249}
  m_GameObject: {fileID: 548829430}
  m_Material: {fileID: 0}
  m_IsTrigger: 0
  m_Enabled: 1
  serializedVersion: 2
  m_Size: {x: 2.03, y: 4.7, z: 1.86}
  m_Center: {x: 0.04, y: 2.52, z: -0.13}
--- !u!23 &548829432
MeshRenderer:
  m_ObjectHideFlags: 0
  m_PrefabParentObject: {fileID: 2365264, guid: 40b641cefef37b147b40453898c94c69,
    type: 2}
  m_PrefabInternal: {fileID: 268965249}
  m_GameObject: {fileID: 548829430}
  m_Enabled: 1
  m_CastShadows: 1
  m_ReceiveShadows: 1
  m_MotionVectors: 1
  m_LightProbeUsage: 0
  m_ReflectionProbeUsage: 1
  m_Materials:
  - {fileID: 2165264, guid: 40b641cefef37b147b40453898c94c69, type: 2}
  - {fileID: 2165266, guid: 40b641cefef37b147b40453898c94c69, type: 2}
  m_StaticBatchInfo:
    firstSubMesh: 0
    subMeshCount: 0
  m_StaticBatchRoot: {fileID: 0}
  m_ProbeAnchor: {fileID: 0}
  m_LightProbeVolumeOverride: {fileID: 0}
  m_ScaleInLightmap: 1
  m_PreserveUVs: 0
  m_IgnoreNormalsForChartDetection: 0
  m_ImportantGI: 0
  m_SelectedEditorRenderState: 3
  m_MinimumChartSize: 4
  m_AutoUVMaxDistance: 0.5
  m_AutoUVMaxAngle: 89
  m_LightmapParameters: {fileID: 0}
  m_SortingLayerID: 0
  m_SortingLayer: 0
  m_SortingOrder: 0
--- !u!33 &548829433
MeshFilter:
  m_ObjectHideFlags: 0
  m_PrefabParentObject: {fileID: 3365264, guid: 40b641cefef37b147b40453898c94c69,
    type: 2}
  m_PrefabInternal: {fileID: 268965249}
  m_GameObject: {fileID: 548829430}
  m_Mesh: {fileID: 4365264, guid: 40b641cefef37b147b40453898c94c69, type: 2}
--- !u!193 &548829434
Tree:
  m_ObjectHideFlags: 0
  m_PrefabParentObject: {fileID: 19365264, guid: 40b641cefef37b147b40453898c94c69,
    type: 2}
  m_PrefabInternal: {fileID: 268965249}
  m_GameObject: {fileID: 548829430}
  m_SpeedTreeWindAsset: {fileID: 0}
  m_TreeData: {fileID: 11465264, guid: 40b641cefef37b147b40453898c94c69, type: 2}
--- !u!4 &548829435
Transform:
  m_ObjectHideFlags: 0
  m_PrefabParentObject: {fileID: 465264, guid: 40b641cefef37b147b40453898c94c69, type: 2}
  m_PrefabInternal: {fileID: 268965249}
  m_GameObject: {fileID: 548829430}
  m_LocalRotation: {x: 0, y: 0, z: 0, w: 1}
  m_LocalPosition: {x: 26.104023, y: -4.0041517e-17, z: 37.83477}
  m_LocalScale: {x: 1, y: 1, z: 1}
  m_Children: []
  m_Father: {fileID: 0}
  m_RootOrder: 1
  m_LocalEulerAnglesHint: {x: 0, y: 0, z: 0}
--- !u!1001 &616845344
Prefab:
  m_ObjectHideFlags: 0
  serializedVersion: 2
  m_Modification:
    m_TransformParent: {fileID: 0}
    m_Modifications:
    - target: {fileID: 413192, guid: 3f077b9fac439b842874b96fe57da15f, type: 2}
      propertyPath: m_LocalPosition.x
      value: 17.0796719
      objectReference: {fileID: 0}
    - target: {fileID: 413192, guid: 3f077b9fac439b842874b96fe57da15f, type: 2}
      propertyPath: m_LocalPosition.y
      value: -4.37802942e-17
      objectReference: {fileID: 0}
    - target: {fileID: 413192, guid: 3f077b9fac439b842874b96fe57da15f, type: 2}
      propertyPath: m_LocalPosition.z
      value: 40.021328
      objectReference: {fileID: 0}
    - target: {fileID: 413192, guid: 3f077b9fac439b842874b96fe57da15f, type: 2}
      propertyPath: m_LocalRotation.x
      value: 0
      objectReference: {fileID: 0}
    - target: {fileID: 413192, guid: 3f077b9fac439b842874b96fe57da15f, type: 2}
      propertyPath: m_LocalRotation.y
      value: 0
      objectReference: {fileID: 0}
    - target: {fileID: 413192, guid: 3f077b9fac439b842874b96fe57da15f, type: 2}
      propertyPath: m_LocalRotation.z
      value: 0
      objectReference: {fileID: 0}
    - target: {fileID: 413192, guid: 3f077b9fac439b842874b96fe57da15f, type: 2}
      propertyPath: m_LocalRotation.w
      value: 1
      objectReference: {fileID: 0}
    - target: {fileID: 413192, guid: 3f077b9fac439b842874b96fe57da15f, type: 2}
      propertyPath: m_RootOrder
      value: 0
      objectReference: {fileID: 0}
    m_RemovedComponents: []
  m_ParentPrefab: {fileID: 100100000, guid: 3f077b9fac439b842874b96fe57da15f, type: 2}
  m_RootGameObject: {fileID: 1679310310}
  m_IsPrefabParent: 0
--- !u!1 &740416406
GameObject:
  m_ObjectHideFlags: 0
  m_PrefabParentObject: {fileID: 0}
  m_PrefabInternal: {fileID: 0}
  serializedVersion: 5
  m_Component:
  - component: {fileID: 740416408}
  - component: {fileID: 740416407}
  m_Layer: 0
  m_Name: WindZone
  m_TagString: Untagged
  m_Icon: {fileID: 0}
  m_NavMeshLayer: 0
  m_StaticEditorFlags: 0
  m_IsActive: 1
--- !u!182 &740416407
WindZone:
  m_ObjectHideFlags: 0
  m_PrefabParentObject: {fileID: 0}
  m_PrefabInternal: {fileID: 0}
  m_GameObject: {fileID: 740416406}
  m_Enabled: 1
  m_Mode: 0
  m_Radius: 20
  m_WindMain: 0.25
  m_WindTurbulence: 0.25
  m_WindPulseMagnitude: 0.25
  m_WindPulseFrequency: 0.01
--- !u!4 &740416408
Transform:
  m_ObjectHideFlags: 0
  m_PrefabParentObject: {fileID: 0}
  m_PrefabInternal: {fileID: 0}
  m_GameObject: {fileID: 740416406}
  m_LocalRotation: {x: 0, y: 0, z: 0, w: 1}
  m_LocalPosition: {x: 38.2, y: 0, z: 24.9}
  m_LocalScale: {x: 1, y: 1, z: 1}
  m_Children: []
  m_Father: {fileID: 0}
  m_RootOrder: 18
  m_LocalEulerAnglesHint: {x: 0, y: 0, z: 0}
--- !u!1 &874720333
GameObject:
  m_ObjectHideFlags: 0
  m_PrefabParentObject: {fileID: 164016, guid: 34500e1d4b7155c4890dc22dc1e6181c, type: 2}
  m_PrefabInternal: {fileID: 6620303}
  serializedVersion: 5
  m_Component:
  - component: {fileID: 874720338}
  - component: {fileID: 874720337}
  - component: {fileID: 874720336}
  - component: {fileID: 874720335}
  - component: {fileID: 874720334}
  m_Layer: 0
  m_Name: BroadLeaf02a2
  m_TagString: Untagged
  m_Icon: {fileID: 0}
  m_NavMeshLayer: 0
  m_StaticEditorFlags: 0
  m_IsActive: 1
--- !u!65 &874720334
BoxCollider:
  m_ObjectHideFlags: 0
  m_PrefabParentObject: {fileID: 6554516, guid: 34500e1d4b7155c4890dc22dc1e6181c,
    type: 2}
  m_PrefabInternal: {fileID: 6620303}
  m_GameObject: {fileID: 874720333}
  m_Material: {fileID: 0}
  m_IsTrigger: 0
  m_Enabled: 1
  serializedVersion: 2
  m_Size: {x: 1.38, y: 5.01, z: 1.84}
  m_Center: {x: 0.02, y: 1.5, z: 0.25}
--- !u!23 &874720335
MeshRenderer:
  m_ObjectHideFlags: 0
  m_PrefabParentObject: {fileID: 2364016, guid: 34500e1d4b7155c4890dc22dc1e6181c,
    type: 2}
  m_PrefabInternal: {fileID: 6620303}
  m_GameObject: {fileID: 874720333}
  m_Enabled: 1
  m_CastShadows: 1
  m_ReceiveShadows: 1
  m_MotionVectors: 1
  m_LightProbeUsage: 0
  m_ReflectionProbeUsage: 1
  m_Materials:
  - {fileID: 2164016, guid: 34500e1d4b7155c4890dc22dc1e6181c, type: 2}
  - {fileID: 2164018, guid: 34500e1d4b7155c4890dc22dc1e6181c, type: 2}
  m_StaticBatchInfo:
    firstSubMesh: 0
    subMeshCount: 0
  m_StaticBatchRoot: {fileID: 0}
  m_ProbeAnchor: {fileID: 0}
  m_LightProbeVolumeOverride: {fileID: 0}
  m_ScaleInLightmap: 1
  m_PreserveUVs: 0
  m_IgnoreNormalsForChartDetection: 0
  m_ImportantGI: 0
  m_SelectedEditorRenderState: 3
  m_MinimumChartSize: 4
  m_AutoUVMaxDistance: 0.5
  m_AutoUVMaxAngle: 89
  m_LightmapParameters: {fileID: 0}
  m_SortingLayerID: 0
  m_SortingLayer: 0
  m_SortingOrder: 0
--- !u!33 &874720336
MeshFilter:
  m_ObjectHideFlags: 0
  m_PrefabParentObject: {fileID: 3364016, guid: 34500e1d4b7155c4890dc22dc1e6181c,
    type: 2}
  m_PrefabInternal: {fileID: 6620303}
  m_GameObject: {fileID: 874720333}
  m_Mesh: {fileID: 4364016, guid: 34500e1d4b7155c4890dc22dc1e6181c, type: 2}
--- !u!193 &874720337
Tree:
  m_ObjectHideFlags: 0
  m_PrefabParentObject: {fileID: 19364016, guid: 34500e1d4b7155c4890dc22dc1e6181c,
    type: 2}
  m_PrefabInternal: {fileID: 6620303}
  m_GameObject: {fileID: 874720333}
  m_SpeedTreeWindAsset: {fileID: 0}
  m_TreeData: {fileID: 11464016, guid: 34500e1d4b7155c4890dc22dc1e6181c, type: 2}
--- !u!4 &874720338
Transform:
  m_ObjectHideFlags: 0
  m_PrefabParentObject: {fileID: 464016, guid: 34500e1d4b7155c4890dc22dc1e6181c, type: 2}
  m_PrefabInternal: {fileID: 6620303}
  m_GameObject: {fileID: 874720333}
  m_LocalRotation: {x: 0, y: 0, z: 0, w: 1}
  m_LocalPosition: {x: 26.444141, y: -3.0927787e-17, z: 28.575788}
  m_LocalScale: {x: 1, y: 1, z: 1}
  m_Children: []
  m_Father: {fileID: 0}
  m_RootOrder: 2
  m_LocalEulerAnglesHint: {x: 0, y: 0, z: 0}
--- !u!1 &1033219319
GameObject:
  m_ObjectHideFlags: 0
  m_PrefabParentObject: {fileID: 138244, guid: c370a91b345318d4eac7637d8ad2b05a, type: 2}
  m_PrefabInternal: {fileID: 2001587454}
  serializedVersion: 5
  m_Component:
  - component: {fileID: 1033219324}
  - component: {fileID: 1033219323}
  - component: {fileID: 1033219322}
  - component: {fileID: 1033219321}
  - component: {fileID: 1033219320}
  m_Layer: 0
  m_Name: BroadLeaf01b1
  m_TagString: Untagged
  m_Icon: {fileID: 0}
  m_NavMeshLayer: 0
  m_StaticEditorFlags: 0
  m_IsActive: 1
--- !u!65 &1033219320
BoxCollider:
  m_ObjectHideFlags: 0
  m_PrefabParentObject: {fileID: 6572208, guid: c370a91b345318d4eac7637d8ad2b05a,
    type: 2}
  m_PrefabInternal: {fileID: 2001587454}
  m_GameObject: {fileID: 1033219319}
  m_Material: {fileID: 0}
  m_IsTrigger: 0
  m_Enabled: 1
  serializedVersion: 2
  m_Size: {x: 0.65, y: 6.87, z: 0.92}
  m_Center: {x: -0.04, y: 3.12, z: 0.17}
--- !u!23 &1033219321
MeshRenderer:
  m_ObjectHideFlags: 0
  m_PrefabParentObject: {fileID: 2338244, guid: c370a91b345318d4eac7637d8ad2b05a,
    type: 2}
  m_PrefabInternal: {fileID: 2001587454}
  m_GameObject: {fileID: 1033219319}
  m_Enabled: 1
  m_CastShadows: 1
  m_ReceiveShadows: 1
  m_MotionVectors: 1
  m_LightProbeUsage: 0
  m_ReflectionProbeUsage: 1
  m_Materials:
  - {fileID: 2138244, guid: c370a91b345318d4eac7637d8ad2b05a, type: 2}
  - {fileID: 2138242, guid: c370a91b345318d4eac7637d8ad2b05a, type: 2}
  m_StaticBatchInfo:
    firstSubMesh: 0
    subMeshCount: 0
  m_StaticBatchRoot: {fileID: 0}
  m_ProbeAnchor: {fileID: 0}
  m_LightProbeVolumeOverride: {fileID: 0}
  m_ScaleInLightmap: 1
  m_PreserveUVs: 0
  m_IgnoreNormalsForChartDetection: 0
  m_ImportantGI: 0
  m_SelectedEditorRenderState: 3
  m_MinimumChartSize: 4
  m_AutoUVMaxDistance: 0.5
  m_AutoUVMaxAngle: 89
  m_LightmapParameters: {fileID: 0}
  m_SortingLayerID: 0
  m_SortingLayer: 0
  m_SortingOrder: 0
--- !u!33 &1033219322
MeshFilter:
  m_ObjectHideFlags: 0
  m_PrefabParentObject: {fileID: 3338244, guid: c370a91b345318d4eac7637d8ad2b05a,
    type: 2}
  m_PrefabInternal: {fileID: 2001587454}
  m_GameObject: {fileID: 1033219319}
  m_Mesh: {fileID: 4338244, guid: c370a91b345318d4eac7637d8ad2b05a, type: 2}
--- !u!193 &1033219323
Tree:
  m_ObjectHideFlags: 0
  m_PrefabParentObject: {fileID: 19338244, guid: c370a91b345318d4eac7637d8ad2b05a,
    type: 2}
  m_PrefabInternal: {fileID: 2001587454}
  m_GameObject: {fileID: 1033219319}
  m_SpeedTreeWindAsset: {fileID: 0}
  m_TreeData: {fileID: 11438244, guid: c370a91b345318d4eac7637d8ad2b05a, type: 2}
--- !u!4 &1033219324
Transform:
  m_ObjectHideFlags: 0
  m_PrefabParentObject: {fileID: 438244, guid: c370a91b345318d4eac7637d8ad2b05a, type: 2}
  m_PrefabInternal: {fileID: 2001587454}
  m_GameObject: {fileID: 1033219319}
  m_LocalRotation: {x: 0, y: 0, z: 0, w: 1}
  m_LocalPosition: {x: 48.55, y: -0, z: 21.57}
  m_LocalScale: {x: 1, y: 1, z: 1}
  m_Children: []
  m_Father: {fileID: 0}
  m_RootOrder: 3
  m_LocalEulerAnglesHint: {x: 0, y: 0, z: 0}
--- !u!1 &1114219651
GameObject:
  m_ObjectHideFlags: 0
  m_PrefabParentObject: {fileID: 142224, guid: 18cc4e56883a25347965f7758ed71742, type: 2}
  m_PrefabInternal: {fileID: 359158555}
  serializedVersion: 5
  m_Component:
  - component: {fileID: 1114219655}
  - component: {fileID: 1114219654}
  - component: {fileID: 1114219653}
  - component: {fileID: 1114219652}
  m_Layer: 0
  m_Name: BroadLeaf01a2
  m_TagString: Untagged
  m_Icon: {fileID: 0}
  m_NavMeshLayer: 0
  m_StaticEditorFlags: 0
  m_IsActive: 1
--- !u!23 &1114219652
MeshRenderer:
  m_ObjectHideFlags: 0
  m_PrefabParentObject: {fileID: 2342224, guid: 18cc4e56883a25347965f7758ed71742,
    type: 2}
  m_PrefabInternal: {fileID: 359158555}
  m_GameObject: {fileID: 1114219651}
  m_Enabled: 1
  m_CastShadows: 1
  m_ReceiveShadows: 1
  m_MotionVectors: 1
  m_LightProbeUsage: 0
  m_ReflectionProbeUsage: 1
  m_Materials:
  - {fileID: 2142224, guid: 18cc4e56883a25347965f7758ed71742, type: 2}
  - {fileID: 2142226, guid: 18cc4e56883a25347965f7758ed71742, type: 2}
  m_StaticBatchInfo:
    firstSubMesh: 0
    subMeshCount: 0
  m_StaticBatchRoot: {fileID: 0}
  m_ProbeAnchor: {fileID: 0}
  m_LightProbeVolumeOverride: {fileID: 0}
  m_ScaleInLightmap: 1
  m_PreserveUVs: 0
  m_IgnoreNormalsForChartDetection: 0
  m_ImportantGI: 0
  m_SelectedEditorRenderState: 3
  m_MinimumChartSize: 4
  m_AutoUVMaxDistance: 0.5
  m_AutoUVMaxAngle: 89
  m_LightmapParameters: {fileID: 0}
  m_SortingLayerID: 0
  m_SortingLayer: 0
  m_SortingOrder: 0
--- !u!33 &1114219653
MeshFilter:
  m_ObjectHideFlags: 0
  m_PrefabParentObject: {fileID: 3342224, guid: 18cc4e56883a25347965f7758ed71742,
    type: 2}
  m_PrefabInternal: {fileID: 359158555}
  m_GameObject: {fileID: 1114219651}
  m_Mesh: {fileID: 4342224, guid: 18cc4e56883a25347965f7758ed71742, type: 2}
--- !u!193 &1114219654
Tree:
  m_ObjectHideFlags: 0
  m_PrefabParentObject: {fileID: 19342224, guid: 18cc4e56883a25347965f7758ed71742,
    type: 2}
  m_PrefabInternal: {fileID: 359158555}
  m_GameObject: {fileID: 1114219651}
  m_SpeedTreeWindAsset: {fileID: 0}
  m_TreeData: {fileID: 11442224, guid: 18cc4e56883a25347965f7758ed71742, type: 2}
--- !u!4 &1114219655
Transform:
  m_ObjectHideFlags: 0
  m_PrefabParentObject: {fileID: 442224, guid: 18cc4e56883a25347965f7758ed71742, type: 2}
  m_PrefabInternal: {fileID: 359158555}
  m_GameObject: {fileID: 1114219651}
  m_LocalRotation: {x: 0, y: 0, z: 0, w: 1}
  m_LocalPosition: {x: 48.05, y: 0.41, z: 37.99}
  m_LocalScale: {x: 1, y: 1, z: 1}
  m_Children: []
  m_Father: {fileID: 0}
  m_RootOrder: 10
  m_LocalEulerAnglesHint: {x: 0, y: 0, z: 0}
--- !u!1001 &1240039814
Prefab:
  m_ObjectHideFlags: 0
  serializedVersion: 2
  m_Modification:
    m_TransformParent: {fileID: 0}
    m_Modifications:
    - target: {fileID: 434380, guid: c999933c7e676e141a05cbf15ef402cd, type: 2}
      propertyPath: m_LocalPosition.x
      value: 53.3300018
      objectReference: {fileID: 0}
    - target: {fileID: 434380, guid: c999933c7e676e141a05cbf15ef402cd, type: 2}
      propertyPath: m_LocalPosition.y
      value: -0
      objectReference: {fileID: 0}
    - target: {fileID: 434380, guid: c999933c7e676e141a05cbf15ef402cd, type: 2}
      propertyPath: m_LocalPosition.z
      value: 21.5900002
      objectReference: {fileID: 0}
    - target: {fileID: 434380, guid: c999933c7e676e141a05cbf15ef402cd, type: 2}
      propertyPath: m_LocalRotation.x
      value: 0
      objectReference: {fileID: 0}
    - target: {fileID: 434380, guid: c999933c7e676e141a05cbf15ef402cd, type: 2}
      propertyPath: m_LocalRotation.y
      value: 0
      objectReference: {fileID: 0}
    - target: {fileID: 434380, guid: c999933c7e676e141a05cbf15ef402cd, type: 2}
      propertyPath: m_LocalRotation.z
      value: 0
      objectReference: {fileID: 0}
    - target: {fileID: 434380, guid: c999933c7e676e141a05cbf15ef402cd, type: 2}
      propertyPath: m_LocalRotation.w
      value: 1
      objectReference: {fileID: 0}
    - target: {fileID: 434380, guid: c999933c7e676e141a05cbf15ef402cd, type: 2}
      propertyPath: m_RootOrder
      value: 3
      objectReference: {fileID: 0}
    m_RemovedComponents: []
  m_ParentPrefab: {fileID: 100100000, guid: c999933c7e676e141a05cbf15ef402cd, type: 2}
  m_RootGameObject: {fileID: 407323924}
  m_IsPrefabParent: 0
--- !u!1 &1384859697
GameObject:
  m_ObjectHideFlags: 0
  m_PrefabParentObject: {fileID: 100000, guid: 9d4133d5d30b644bd87802a347eaccbe, type: 2}
  m_PrefabInternal: {fileID: 1627435093}
  serializedVersion: 5
  m_Component:
  - component: {fileID: 1384859698}
  - component: {fileID: 1384859700}
  - component: {fileID: 1384859699}
  m_Layer: 0
  m_Name: Graphics
  m_TagString: Untagged
  m_Icon: {fileID: 0}
  m_NavMeshLayer: 0
  m_StaticEditorFlags: 0
  m_IsActive: 1
--- !u!4 &1384859698
Transform:
  m_ObjectHideFlags: 0
  m_PrefabParentObject: {fileID: 400000, guid: 9d4133d5d30b644bd87802a347eaccbe, type: 2}
  m_PrefabInternal: {fileID: 1627435093}
  m_GameObject: {fileID: 1384859697}
  m_LocalRotation: {x: -0, y: 0, z: 0, w: 1}
  m_LocalPosition: {x: 0, y: 0, z: 0}
  m_LocalScale: {x: 0.4, y: 0.5, z: 0.4}
  m_Children: []
  m_Father: {fileID: 1520687153}
  m_RootOrder: 0
  m_LocalEulerAnglesHint: {x: 0, y: 0, z: 0}
--- !u!23 &1384859699
MeshRenderer:
  m_ObjectHideFlags: 0
  m_PrefabParentObject: {fileID: 2300000, guid: 9d4133d5d30b644bd87802a347eaccbe,
    type: 2}
  m_PrefabInternal: {fileID: 1627435093}
  m_GameObject: {fileID: 1384859697}
  m_Enabled: 1
  m_CastShadows: 0
  m_ReceiveShadows: 0
  m_MotionVectors: 1
  m_LightProbeUsage: 1
  m_ReflectionProbeUsage: 1
  m_Materials:
  - {fileID: 10302, guid: 0000000000000000f000000000000000, type: 0}
  m_StaticBatchInfo:
    firstSubMesh: 0
    subMeshCount: 0
  m_StaticBatchRoot: {fileID: 0}
  m_ProbeAnchor: {fileID: 0}
  m_LightProbeVolumeOverride: {fileID: 0}
  m_ScaleInLightmap: 1
  m_PreserveUVs: 0
  m_IgnoreNormalsForChartDetection: 0
  m_ImportantGI: 0
  m_SelectedEditorRenderState: 3
  m_MinimumChartSize: 4
  m_AutoUVMaxDistance: 0.5
  m_AutoUVMaxAngle: 89
  m_LightmapParameters: {fileID: 0}
  m_SortingLayerID: 0
  m_SortingLayer: 0
  m_SortingOrder: 0
--- !u!33 &1384859700
MeshFilter:
  m_ObjectHideFlags: 0
  m_PrefabParentObject: {fileID: 3300000, guid: 9d4133d5d30b644bd87802a347eaccbe,
    type: 2}
  m_PrefabInternal: {fileID: 1627435093}
  m_GameObject: {fileID: 1384859697}
  m_Mesh: {fileID: 10205, guid: 0000000000000000e000000000000000, type: 0}
--- !u!1 &1488593789
GameObject:
  m_ObjectHideFlags: 0
  m_PrefabParentObject: {fileID: 100000, guid: 04481698c1b2e2248a8d5eb7f59da022, type: 3}
  m_PrefabInternal: {fileID: 160987009}
  serializedVersion: 5
  m_Component:
  - component: {fileID: 1488593794}
  - component: {fileID: 1488593793}
  - component: {fileID: 1488593792}
  - component: {fileID: 1488593791}
  - component: {fileID: 1488593790}
  m_Layer: 0
  m_Name: Rock02
  m_TagString: Untagged
  m_Icon: {fileID: 0}
  m_NavMeshLayer: 0
  m_StaticEditorFlags: 0
  m_IsActive: 1
--- !u!95 &1488593790
Animator:
  serializedVersion: 3
  m_ObjectHideFlags: 0
  m_PrefabParentObject: {fileID: 9500000, guid: 04481698c1b2e2248a8d5eb7f59da022,
    type: 3}
  m_PrefabInternal: {fileID: 160987009}
  m_GameObject: {fileID: 1488593789}
  m_Enabled: 1
  m_Avatar: {fileID: 9000000, guid: 04481698c1b2e2248a8d5eb7f59da022, type: 3}
  m_Controller: {fileID: 0}
  m_CullingMode: 0
  m_UpdateMode: 0
  m_ApplyRootMotion: 0
  m_LinearVelocityBlending: 0
  m_WarningMessage: 
  m_HasTransformHierarchy: 1
  m_AllowConstantClipSamplingOptimization: 1
--- !u!64 &1488593791
MeshCollider:
  m_ObjectHideFlags: 0
  m_PrefabParentObject: {fileID: 6400000, guid: 04481698c1b2e2248a8d5eb7f59da022,
    type: 3}
  m_PrefabInternal: {fileID: 160987009}
  m_GameObject: {fileID: 1488593789}
  m_Material: {fileID: 0}
  m_IsTrigger: 0
  m_Enabled: 1
  serializedVersion: 2
  m_Convex: 0
  m_InflateMesh: 0
  m_SkinWidth: 0.01
  m_Mesh: {fileID: 4300000, guid: 04481698c1b2e2248a8d5eb7f59da022, type: 3}
--- !u!23 &1488593792
MeshRenderer:
  m_ObjectHideFlags: 0
  m_PrefabParentObject: {fileID: 2300000, guid: 04481698c1b2e2248a8d5eb7f59da022,
    type: 3}
  m_PrefabInternal: {fileID: 160987009}
  m_GameObject: {fileID: 1488593789}
  m_Enabled: 1
  m_CastShadows: 1
  m_ReceiveShadows: 1
  m_MotionVectors: 1
  m_LightProbeUsage: 1
  m_ReflectionProbeUsage: 1
  m_Materials:
  - {fileID: 2100000, guid: 3c5cdc58c34be964e959fe925b5f42ab, type: 2}
  m_StaticBatchInfo:
    firstSubMesh: 0
    subMeshCount: 0
  m_StaticBatchRoot: {fileID: 0}
  m_ProbeAnchor: {fileID: 0}
  m_LightProbeVolumeOverride: {fileID: 0}
  m_ScaleInLightmap: 1
  m_PreserveUVs: 0
  m_IgnoreNormalsForChartDetection: 0
  m_ImportantGI: 0
  m_SelectedEditorRenderState: 3
  m_MinimumChartSize: 4
  m_AutoUVMaxDistance: 0.5
  m_AutoUVMaxAngle: 89
  m_LightmapParameters: {fileID: 0}
  m_SortingLayerID: 0
  m_SortingLayer: 0
  m_SortingOrder: 0
--- !u!33 &1488593793
MeshFilter:
  m_ObjectHideFlags: 0
  m_PrefabParentObject: {fileID: 3300000, guid: 04481698c1b2e2248a8d5eb7f59da022,
    type: 3}
  m_PrefabInternal: {fileID: 160987009}
  m_GameObject: {fileID: 1488593789}
  m_Mesh: {fileID: 4300000, guid: 04481698c1b2e2248a8d5eb7f59da022, type: 3}
--- !u!4 &1488593794
Transform:
  m_ObjectHideFlags: 0
  m_PrefabParentObject: {fileID: 400000, guid: 04481698c1b2e2248a8d5eb7f59da022, type: 3}
  m_PrefabInternal: {fileID: 160987009}
  m_GameObject: {fileID: 1488593789}
  m_LocalRotation: {x: -0.7071069, y: 0, z: -0, w: 0.70710677}
  m_LocalPosition: {x: 52.85, y: 0.05, z: 37.7}
  m_LocalScale: {x: 1, y: 1, z: 1}
  m_Children: []
  m_Father: {fileID: 0}
  m_RootOrder: 12
  m_LocalEulerAnglesHint: {x: 0, y: 0, z: 0}
--- !u!1001 &1504620716
Prefab:
  m_ObjectHideFlags: 0
  serializedVersion: 2
  m_Modification:
    m_TransformParent: {fileID: 0}
    m_Modifications:
    - target: {fileID: 400000, guid: bd45e59577463714f9441db4b88afd7c, type: 3}
      propertyPath: m_LocalPosition.x
      value: 52.7000008
      objectReference: {fileID: 0}
    - target: {fileID: 400000, guid: bd45e59577463714f9441db4b88afd7c, type: 3}
      propertyPath: m_LocalPosition.y
      value: .0500000007
      objectReference: {fileID: 0}
    - target: {fileID: 400000, guid: bd45e59577463714f9441db4b88afd7c, type: 3}
      propertyPath: m_LocalPosition.z
      value: 29.5799999
      objectReference: {fileID: 0}
    - target: {fileID: 400000, guid: bd45e59577463714f9441db4b88afd7c, type: 3}
      propertyPath: m_LocalRotation.x
      value: -3.77489506e-08
      objectReference: {fileID: 0}
    - target: {fileID: 400000, guid: bd45e59577463714f9441db4b88afd7c, type: 3}
      propertyPath: m_LocalRotation.y
      value: 0
      objectReference: {fileID: 0}
    - target: {fileID: 400000, guid: bd45e59577463714f9441db4b88afd7c, type: 3}
      propertyPath: m_LocalRotation.z
      value: -0
      objectReference: {fileID: 0}
    - target: {fileID: 400000, guid: bd45e59577463714f9441db4b88afd7c, type: 3}
      propertyPath: m_LocalRotation.w
      value: 1
      objectReference: {fileID: 0}
    - target: {fileID: 400000, guid: bd45e59577463714f9441db4b88afd7c, type: 3}
      propertyPath: m_RootOrder
      value: 5
      objectReference: {fileID: 0}
    m_RemovedComponents: []
  m_ParentPrefab: {fileID: 100100000, guid: bd45e59577463714f9441db4b88afd7c, type: 3}
  m_RootGameObject: {fileID: 377730164}
  m_IsPrefabParent: 0
--- !u!1 &1520687148
GameObject:
  m_ObjectHideFlags: 0
  m_PrefabParentObject: {fileID: 100002, guid: 9d4133d5d30b644bd87802a347eaccbe, type: 2}
  m_PrefabInternal: {fileID: 1627435093}
  serializedVersion: 5
  m_Component:
  - component: {fileID: 1520687153}
  - component: {fileID: 1520687152}
  - component: {fileID: 1520687151}
  - component: {fileID: 1520687150}
  - component: {fileID: 1520687149}
  m_Layer: 0
  m_Name: First Person Controller
  m_TagString: Untagged
  m_Icon: {fileID: 0}
  m_NavMeshLayer: 0
  m_StaticEditorFlags: 0
  m_IsActive: 1
--- !u!114 &1520687149
MonoBehaviour:
  m_ObjectHideFlags: 0
  m_PrefabParentObject: {fileID: 11400004, guid: 9d4133d5d30b644bd87802a347eaccbe,
    type: 2}
  m_PrefabInternal: {fileID: 1627435093}
  m_GameObject: {fileID: 1520687148}
  m_Enabled: 1
  m_EditorHideFlags: 0
  m_Script: {fileID: 11500000, guid: 60bca8f58a0b8478e946e6e86658cb29, type: 3}
  m_Name: 
  m_EditorClassIdentifier: 
--- !u!114 &1520687150
MonoBehaviour:
  m_ObjectHideFlags: 0
  m_PrefabParentObject: {fileID: 11400002, guid: 9d4133d5d30b644bd87802a347eaccbe,
    type: 2}
  m_PrefabInternal: {fileID: 1627435093}
  m_GameObject: {fileID: 1520687148}
  m_Enabled: 1
  m_EditorHideFlags: 0
  m_Script: {fileID: 11500000, guid: 0ab79d7f243824f5d9826bd83522c8df, type: 3}
  m_Name: 
  m_EditorClassIdentifier: 
  canControl: 1
  useFixedUpdate: 1
  movement:
    maxForwardSpeed: 6
    maxSidewaysSpeed: 6
    maxBackwardsSpeed: 6
    slopeSpeedMultiplier:
      serializedVersion: 2
      m_Curve:
      - serializedVersion: 2
        time: -90
        value: 1
        inSlope: 0
        outSlope: 0
        tangentMode: 0
      - serializedVersion: 2
        time: 0
        value: 1
        inSlope: 0
        outSlope: 0
        tangentMode: 0
      - serializedVersion: 2
        time: 90
        value: 0
        inSlope: 0
        outSlope: 0
        tangentMode: 0
      m_PreInfinity: 2
      m_PostInfinity: 2
      m_RotationOrder: 4
    maxGroundAcceleration: 20
    maxAirAcceleration: 15
    gravity: 20
    maxFallSpeed: 20
  jumping:
    enabled: 1
    baseHeight: 1
    extraHeight: 1
    perpAmount: 0
    steepPerpAmount: 0.5
  movingPlatform:
    enabled: 1
    movementTransfer: 2
  sliding:
    enabled: 1
    slidingSpeed: 10
    sidewaysControl: 1
    speedControl: 0.4
--- !u!114 &1520687151
MonoBehaviour:
  m_ObjectHideFlags: 0
  m_PrefabParentObject: {fileID: 11400000, guid: 9d4133d5d30b644bd87802a347eaccbe,
    type: 2}
  m_PrefabInternal: {fileID: 1627435093}
  m_GameObject: {fileID: 1520687148}
  m_Enabled: 1
  m_EditorHideFlags: 0
  m_Script: {fileID: 11500000, guid: 68ec2fe99d1108b9d0006a298d76c639, type: 3}
  m_Name: 
  m_EditorClassIdentifier: 
  axes: 1
  sensitivityX: 15
  sensitivityY: 0
  minimumX: -360
  maximumX: 360
  minimumY: 0
  maximumY: 0
--- !u!143 &1520687152
CharacterController:
  m_ObjectHideFlags: 0
  m_PrefabParentObject: {fileID: 14300000, guid: 9d4133d5d30b644bd87802a347eaccbe,
    type: 2}
  m_PrefabInternal: {fileID: 1627435093}
  m_GameObject: {fileID: 1520687148}
  m_Material: {fileID: 0}
  m_IsTrigger: 0
  m_Enabled: 1
  serializedVersion: 2
  m_Height: 2
  m_Radius: 0.4
  m_SlopeLimit: 45
  m_StepOffset: 0.4
  m_SkinWidth: 0.05
  m_MinMoveDistance: 0
  m_Center: {x: 0, y: 0, z: 0}
--- !u!4 &1520687153
Transform:
  m_ObjectHideFlags: 0
  m_PrefabParentObject: {fileID: 400002, guid: 9d4133d5d30b644bd87802a347eaccbe, type: 2}
  m_PrefabInternal: {fileID: 1627435093}
  m_GameObject: {fileID: 1520687148}
  m_LocalRotation: {x: 0, y: -0.707106, z: 0, w: 0.7071076}
  m_LocalPosition: {x: 73.32, y: 1, z: 28.19}
  m_LocalScale: {x: 1, y: 1, z: 1}
  m_Children:
  - {fileID: 1384859698}
  - {fileID: 1915887479}
  m_Father: {fileID: 0}
  m_RootOrder: 14
  m_LocalEulerAnglesHint: {x: 0, y: 0, z: 0}
--- !u!1001 &1627435093
Prefab:
  m_ObjectHideFlags: 0
  serializedVersion: 2
  m_Modification:
    m_TransformParent: {fileID: 0}
    m_Modifications:
    - target: {fileID: 400002, guid: 9d4133d5d30b644bd87802a347eaccbe, type: 2}
      propertyPath: m_LocalPosition.x
      value: 73.3199997
      objectReference: {fileID: 0}
    - target: {fileID: 400002, guid: 9d4133d5d30b644bd87802a347eaccbe, type: 2}
      propertyPath: m_LocalPosition.y
      value: 1
      objectReference: {fileID: 0}
    - target: {fileID: 400002, guid: 9d4133d5d30b644bd87802a347eaccbe, type: 2}
      propertyPath: m_LocalPosition.z
      value: 28.1900005
      objectReference: {fileID: 0}
    - target: {fileID: 400002, guid: 9d4133d5d30b644bd87802a347eaccbe, type: 2}
      propertyPath: m_LocalRotation.x
      value: 0
      objectReference: {fileID: 0}
    - target: {fileID: 400002, guid: 9d4133d5d30b644bd87802a347eaccbe, type: 2}
      propertyPath: m_LocalRotation.y
      value: -.707105994
      objectReference: {fileID: 0}
    - target: {fileID: 400002, guid: 9d4133d5d30b644bd87802a347eaccbe, type: 2}
      propertyPath: m_LocalRotation.z
      value: 0
      objectReference: {fileID: 0}
    - target: {fileID: 400002, guid: 9d4133d5d30b644bd87802a347eaccbe, type: 2}
      propertyPath: m_LocalRotation.w
      value: .707107604
      objectReference: {fileID: 0}
    - target: {fileID: 400002, guid: 9d4133d5d30b644bd87802a347eaccbe, type: 2}
      propertyPath: m_RootOrder
      value: 6
      objectReference: {fileID: 0}
    - target: {fileID: 2000000, guid: 9d4133d5d30b644bd87802a347eaccbe, type: 2}
      propertyPath: m_BackGroundColor.r
      value: .278431386
      objectReference: {fileID: 0}
    - target: {fileID: 2000000, guid: 9d4133d5d30b644bd87802a347eaccbe, type: 2}
      propertyPath: m_BackGroundColor.g
      value: .278431386
      objectReference: {fileID: 0}
    - target: {fileID: 2000000, guid: 9d4133d5d30b644bd87802a347eaccbe, type: 2}
      propertyPath: m_BackGroundColor.b
      value: .278431386
      objectReference: {fileID: 0}
    - target: {fileID: 400004, guid: 9d4133d5d30b644bd87802a347eaccbe, type: 2}
      propertyPath: m_LocalRotation.y
      value: 0
      objectReference: {fileID: 0}
    - target: {fileID: 400004, guid: 9d4133d5d30b644bd87802a347eaccbe, type: 2}
      propertyPath: m_LocalRotation.w
      value: 1
      objectReference: {fileID: 0}
    - target: {fileID: 2000000, guid: 9d4133d5d30b644bd87802a347eaccbe, type: 2}
      propertyPath: field of view
      value: 70
      objectReference: {fileID: 0}
    m_RemovedComponents: []
  m_ParentPrefab: {fileID: 100100000, guid: 9d4133d5d30b644bd87802a347eaccbe, type: 2}
  m_RootGameObject: {fileID: 1520687148}
  m_IsPrefabParent: 0
--- !u!1 &1632676450
GameObject:
  m_ObjectHideFlags: 0
  m_PrefabParentObject: {fileID: 0}
  m_PrefabInternal: {fileID: 0}
  serializedVersion: 5
  m_Component:
  - component: {fileID: 1632676455}
  - component: {fileID: 1632676454}
  - component: {fileID: 1632676453}
  - component: {fileID: 1632676452}
  - component: {fileID: 1632676451}
  m_Layer: 0
  m_Name: Main Camera
  m_TagString: MainCamera
  m_Icon: {fileID: 0}
  m_NavMeshLayer: 0
  m_StaticEditorFlags: 0
  m_IsActive: 1
--- !u!81 &1632676451
AudioListener:
  m_ObjectHideFlags: 0
  m_PrefabParentObject: {fileID: 0}
  m_PrefabInternal: {fileID: 0}
  m_GameObject: {fileID: 1632676450}
  m_Enabled: 1
--- !u!124 &1632676452
Behaviour:
  m_ObjectHideFlags: 0
  m_PrefabParentObject: {fileID: 0}
  m_PrefabInternal: {fileID: 0}
  m_GameObject: {fileID: 1632676450}
  m_Enabled: 1
--- !u!92 &1632676453
Behaviour:
  m_ObjectHideFlags: 0
  m_PrefabParentObject: {fileID: 0}
  m_PrefabInternal: {fileID: 0}
  m_GameObject: {fileID: 1632676450}
  m_Enabled: 1
--- !u!20 &1632676454
Camera:
  m_ObjectHideFlags: 0
  m_PrefabParentObject: {fileID: 0}
  m_PrefabInternal: {fileID: 0}
  m_GameObject: {fileID: 1632676450}
  m_Enabled: 1
  serializedVersion: 2
  m_ClearFlags: 1
  m_BackGroundColor: {r: 0.19215687, g: 0.3019608, b: 0.4745098, a: 0.019607844}
  m_NormalizedViewPortRect:
    serializedVersion: 2
    x: 0
    y: 0
    width: 1
    height: 1
  near clip plane: 0.3
  far clip plane: 1000
  field of view: 60
  orthographic: 0
  orthographic size: 5
  m_Depth: -1
  m_CullingMask:
    serializedVersion: 2
    m_Bits: 4294967295
  m_RenderingPath: -1
  m_TargetTexture: {fileID: 0}
  m_TargetDisplay: 0
  m_TargetEye: 3
  m_HDR: 0
  m_AllowMSAA: 1
  m_ForceIntoRT: 0
  m_OcclusionCulling: 1
  m_StereoConvergence: 10
  m_StereoSeparation: 0.022
  m_StereoMirrorMode: 0
--- !u!4 &1632676455
Transform:
  m_ObjectHideFlags: 0
  m_PrefabParentObject: {fileID: 0}
  m_PrefabInternal: {fileID: 0}
  m_GameObject: {fileID: 1632676450}
  m_LocalRotation: {x: 0, y: 0, z: 0, w: 1}
  m_LocalPosition: {x: 0, y: 1, z: -10}
  m_LocalScale: {x: 1, y: 1, z: 1}
  m_Children: []
  m_Father: {fileID: 0}
  m_RootOrder: 15
  m_LocalEulerAnglesHint: {x: 0, y: 0, z: 0}
--- !u!1 &1679310310
GameObject:
  m_ObjectHideFlags: 0
  m_PrefabParentObject: {fileID: 113192, guid: 3f077b9fac439b842874b96fe57da15f, type: 2}
  m_PrefabInternal: {fileID: 616845344}
  serializedVersion: 5
  m_Component:
  - component: {fileID: 1679310314}
  - component: {fileID: 1679310313}
  - component: {fileID: 1679310312}
  - component: {fileID: 1679310311}
  m_Layer: 0
  m_Name: Bush01
  m_TagString: Untagged
  m_Icon: {fileID: 0}
  m_NavMeshLayer: 0
  m_StaticEditorFlags: 0
  m_IsActive: 1
--- !u!23 &1679310311
MeshRenderer:
  m_ObjectHideFlags: 0
  m_PrefabParentObject: {fileID: 2313192, guid: 3f077b9fac439b842874b96fe57da15f,
    type: 2}
  m_PrefabInternal: {fileID: 616845344}
  m_GameObject: {fileID: 1679310310}
  m_Enabled: 1
  m_CastShadows: 1
  m_ReceiveShadows: 1
  m_MotionVectors: 1
  m_LightProbeUsage: 0
  m_ReflectionProbeUsage: 1
  m_Materials:
  - {fileID: 2113192, guid: 3f077b9fac439b842874b96fe57da15f, type: 2}
  - {fileID: 2113190, guid: 3f077b9fac439b842874b96fe57da15f, type: 2}
  m_StaticBatchInfo:
    firstSubMesh: 0
    subMeshCount: 0
  m_StaticBatchRoot: {fileID: 0}
  m_ProbeAnchor: {fileID: 0}
  m_LightProbeVolumeOverride: {fileID: 0}
  m_ScaleInLightmap: 1
  m_PreserveUVs: 0
  m_IgnoreNormalsForChartDetection: 0
  m_ImportantGI: 0
  m_SelectedEditorRenderState: 3
  m_MinimumChartSize: 4
  m_AutoUVMaxDistance: 0.5
  m_AutoUVMaxAngle: 89
  m_LightmapParameters: {fileID: 0}
  m_SortingLayerID: 0
  m_SortingLayer: 0
  m_SortingOrder: 0
--- !u!33 &1679310312
MeshFilter:
  m_ObjectHideFlags: 0
  m_PrefabParentObject: {fileID: 3313192, guid: 3f077b9fac439b842874b96fe57da15f,
    type: 2}
  m_PrefabInternal: {fileID: 616845344}
  m_GameObject: {fileID: 1679310310}
  m_Mesh: {fileID: 4313192, guid: 3f077b9fac439b842874b96fe57da15f, type: 2}
--- !u!193 &1679310313
Tree:
  m_ObjectHideFlags: 0
  m_PrefabParentObject: {fileID: 19313192, guid: 3f077b9fac439b842874b96fe57da15f,
    type: 2}
  m_PrefabInternal: {fileID: 616845344}
  m_GameObject: {fileID: 1679310310}
  m_SpeedTreeWindAsset: {fileID: 0}
  m_TreeData: {fileID: 11413192, guid: 3f077b9fac439b842874b96fe57da15f, type: 2}
--- !u!4 &1679310314
Transform:
  m_ObjectHideFlags: 0
  m_PrefabParentObject: {fileID: 413192, guid: 3f077b9fac439b842874b96fe57da15f, type: 2}
  m_PrefabInternal: {fileID: 616845344}
  m_GameObject: {fileID: 1679310310}
  m_LocalRotation: {x: 0, y: 0, z: 0, w: 1}
  m_LocalPosition: {x: 17.079672, y: -4.3780294e-17, z: 40.021328}
  m_LocalScale: {x: 1, y: 1, z: 1}
  m_Children: []
  m_Father: {fileID: 0}
  m_RootOrder: 4
  m_LocalEulerAnglesHint: {x: 0, y: 0, z: 0}
--- !u!1 &1724928180
GameObject:
  m_ObjectHideFlags: 0
  m_PrefabParentObject: {fileID: 103096, guid: ad27bebd4cdf77344a4a75889655f7bd, type: 2}
  m_PrefabInternal: {fileID: 154861890}
  serializedVersion: 5
  m_Component:
  - component: {fileID: 1724928185}
  - component: {fileID: 1724928184}
  - component: {fileID: 1724928183}
  - component: {fileID: 1724928182}
  - component: {fileID: 1724928181}
  m_Layer: 0
  m_Name: BroadLeaf01b3
  m_TagString: Untagged
  m_Icon: {fileID: 0}
  m_NavMeshLayer: 0
  m_StaticEditorFlags: 0
  m_IsActive: 1
--- !u!65 &1724928181
BoxCollider:
  m_ObjectHideFlags: 0
  m_PrefabParentObject: {fileID: 6568708, guid: ad27bebd4cdf77344a4a75889655f7bd,
    type: 2}
  m_PrefabInternal: {fileID: 154861890}
  m_GameObject: {fileID: 1724928180}
  m_Material: {fileID: 0}
  m_IsTrigger: 0
  m_Enabled: 1
  serializedVersion: 2
  m_Size: {x: 1.65, y: 3.6, z: 1.47}
  m_Center: {x: -0.35, y: 2.19, z: 0.29}
--- !u!23 &1724928182
MeshRenderer:
  m_ObjectHideFlags: 0
  m_PrefabParentObject: {fileID: 2303096, guid: ad27bebd4cdf77344a4a75889655f7bd,
    type: 2}
  m_PrefabInternal: {fileID: 154861890}
  m_GameObject: {fileID: 1724928180}
  m_Enabled: 1
  m_CastShadows: 1
  m_ReceiveShadows: 1
  m_MotionVectors: 1
  m_LightProbeUsage: 0
  m_ReflectionProbeUsage: 1
  m_Materials:
  - {fileID: 2103096, guid: ad27bebd4cdf77344a4a75889655f7bd, type: 2}
  - {fileID: 2103094, guid: ad27bebd4cdf77344a4a75889655f7bd, type: 2}
  m_StaticBatchInfo:
    firstSubMesh: 0
    subMeshCount: 0
  m_StaticBatchRoot: {fileID: 0}
  m_ProbeAnchor: {fileID: 0}
  m_LightProbeVolumeOverride: {fileID: 0}
  m_ScaleInLightmap: 1
  m_PreserveUVs: 0
  m_IgnoreNormalsForChartDetection: 0
  m_ImportantGI: 0
  m_SelectedEditorRenderState: 3
  m_MinimumChartSize: 4
  m_AutoUVMaxDistance: 0.5
  m_AutoUVMaxAngle: 89
  m_LightmapParameters: {fileID: 0}
  m_SortingLayerID: 0
  m_SortingLayer: 0
  m_SortingOrder: 0
--- !u!33 &1724928183
MeshFilter:
  m_ObjectHideFlags: 0
  m_PrefabParentObject: {fileID: 3303096, guid: ad27bebd4cdf77344a4a75889655f7bd,
    type: 2}
  m_PrefabInternal: {fileID: 154861890}
  m_GameObject: {fileID: 1724928180}
  m_Mesh: {fileID: 4303096, guid: ad27bebd4cdf77344a4a75889655f7bd, type: 2}
--- !u!193 &1724928184
Tree:
  m_ObjectHideFlags: 0
  m_PrefabParentObject: {fileID: 19303096, guid: ad27bebd4cdf77344a4a75889655f7bd,
    type: 2}
  m_PrefabInternal: {fileID: 154861890}
  m_GameObject: {fileID: 1724928180}
  m_SpeedTreeWindAsset: {fileID: 0}
  m_TreeData: {fileID: 11403096, guid: ad27bebd4cdf77344a4a75889655f7bd, type: 2}
--- !u!4 &1724928185
Transform:
  m_ObjectHideFlags: 0
  m_PrefabParentObject: {fileID: 403096, guid: ad27bebd4cdf77344a4a75889655f7bd, type: 2}
  m_PrefabInternal: {fileID: 154861890}
  m_GameObject: {fileID: 1724928180}
  m_LocalRotation: {x: 0, y: 0, z: 0, w: 1}
  m_LocalPosition: {x: 38.253513, y: -3.180841e-17, z: 29.548136}
  m_LocalScale: {x: 1, y: 1, z: 1}
  m_Children: []
  m_Father: {fileID: 0}
  m_RootOrder: 5
  m_LocalEulerAnglesHint: {x: 0, y: 0, z: 0}
--- !u!1 &1792650901
GameObject:
  m_ObjectHideFlags: 0
  m_PrefabParentObject: {fileID: 176894, guid: 26a554db9f81cf1469052951012fa4ce, type: 2}
  m_PrefabInternal: {fileID: 156893701}
  serializedVersion: 5
  m_Component:
  - component: {fileID: 1792650906}
  - component: {fileID: 1792650905}
  - component: {fileID: 1792650904}
  - component: {fileID: 1792650903}
  - component: {fileID: 1792650902}
  m_Layer: 0
  m_Name: BroadLeaf01b4
  m_TagString: Untagged
  m_Icon: {fileID: 0}
  m_NavMeshLayer: 0
  m_StaticEditorFlags: 0
  m_IsActive: 1
--- !u!65 &1792650902
BoxCollider:
  m_ObjectHideFlags: 0
  m_PrefabParentObject: {fileID: 6598354, guid: 26a554db9f81cf1469052951012fa4ce,
    type: 2}
  m_PrefabInternal: {fileID: 156893701}
  m_GameObject: {fileID: 1792650901}
  m_Material: {fileID: 0}
  m_IsTrigger: 0
  m_Enabled: 1
  serializedVersion: 2
  m_Size: {x: 1.52, y: 6.29, z: 1.96}
  m_Center: {x: 0.09, y: 3.2, z: 0.09}
--- !u!23 &1792650903
MeshRenderer:
  m_ObjectHideFlags: 0
  m_PrefabParentObject: {fileID: 2376894, guid: 26a554db9f81cf1469052951012fa4ce,
    type: 2}
  m_PrefabInternal: {fileID: 156893701}
  m_GameObject: {fileID: 1792650901}
  m_Enabled: 1
  m_CastShadows: 1
  m_ReceiveShadows: 1
  m_MotionVectors: 1
  m_LightProbeUsage: 0
  m_ReflectionProbeUsage: 1
  m_Materials:
  - {fileID: 2176894, guid: 26a554db9f81cf1469052951012fa4ce, type: 2}
  - {fileID: 2176896, guid: 26a554db9f81cf1469052951012fa4ce, type: 2}
  m_StaticBatchInfo:
    firstSubMesh: 0
    subMeshCount: 0
  m_StaticBatchRoot: {fileID: 0}
  m_ProbeAnchor: {fileID: 0}
  m_LightProbeVolumeOverride: {fileID: 0}
  m_ScaleInLightmap: 1
  m_PreserveUVs: 0
  m_IgnoreNormalsForChartDetection: 0
  m_ImportantGI: 0
  m_SelectedEditorRenderState: 3
  m_MinimumChartSize: 4
  m_AutoUVMaxDistance: 0.5
  m_AutoUVMaxAngle: 89
  m_LightmapParameters: {fileID: 0}
  m_SortingLayerID: 0
  m_SortingLayer: 0
  m_SortingOrder: 0
--- !u!33 &1792650904
MeshFilter:
  m_ObjectHideFlags: 0
  m_PrefabParentObject: {fileID: 3376894, guid: 26a554db9f81cf1469052951012fa4ce,
    type: 2}
  m_PrefabInternal: {fileID: 156893701}
  m_GameObject: {fileID: 1792650901}
  m_Mesh: {fileID: 4376894, guid: 26a554db9f81cf1469052951012fa4ce, type: 2}
--- !u!193 &1792650905
Tree:
  m_ObjectHideFlags: 0
  m_PrefabParentObject: {fileID: 19376894, guid: 26a554db9f81cf1469052951012fa4ce,
    type: 2}
  m_PrefabInternal: {fileID: 156893701}
  m_GameObject: {fileID: 1792650901}
  m_SpeedTreeWindAsset: {fileID: 0}
  m_TreeData: {fileID: 11476894, guid: 26a554db9f81cf1469052951012fa4ce, type: 2}
--- !u!4 &1792650906
Transform:
  m_ObjectHideFlags: 0
  m_PrefabParentObject: {fileID: 476894, guid: 26a554db9f81cf1469052951012fa4ce, type: 2}
  m_PrefabInternal: {fileID: 156893701}
  m_GameObject: {fileID: 1792650901}
  m_LocalRotation: {x: 0, y: 0, z: 0, w: 1}
  m_LocalPosition: {x: 38.545216, y: -2.1721232e-17, z: 20.352953}
  m_LocalScale: {x: 1, y: 1, z: 1}
  m_Children: []
  m_Father: {fileID: 0}
  m_RootOrder: 6
  m_LocalEulerAnglesHint: {x: 0, y: 0, z: 0}
--- !u!1 &1840270054
GameObject:
  m_ObjectHideFlags: 0
  m_PrefabParentObject: {fileID: 169722, guid: 7bbe5e1e81bf85c41851e99d0bbc3b3a, type: 2}
  m_PrefabInternal: {fileID: 1856640523}
  serializedVersion: 5
  m_Component:
  - component: {fileID: 1840270058}
  - component: {fileID: 1840270057}
  - component: {fileID: 1840270056}
  - component: {fileID: 1840270055}
  m_Layer: 0
  m_Name: Bush02
  m_TagString: Untagged
  m_Icon: {fileID: 0}
  m_NavMeshLayer: 0
  m_StaticEditorFlags: 0
  m_IsActive: 1
--- !u!23 &1840270055
MeshRenderer:
  m_ObjectHideFlags: 0
  m_PrefabParentObject: {fileID: 2369722, guid: 7bbe5e1e81bf85c41851e99d0bbc3b3a,
    type: 2}
  m_PrefabInternal: {fileID: 1856640523}
  m_GameObject: {fileID: 1840270054}
  m_Enabled: 1
  m_CastShadows: 1
  m_ReceiveShadows: 1
  m_MotionVectors: 1
  m_LightProbeUsage: 0
  m_ReflectionProbeUsage: 1
  m_Materials:
  - {fileID: 2169722, guid: 7bbe5e1e81bf85c41851e99d0bbc3b3a, type: 2}
  - {fileID: 2169724, guid: 7bbe5e1e81bf85c41851e99d0bbc3b3a, type: 2}
  m_StaticBatchInfo:
    firstSubMesh: 0
    subMeshCount: 0
  m_StaticBatchRoot: {fileID: 0}
  m_ProbeAnchor: {fileID: 0}
  m_LightProbeVolumeOverride: {fileID: 0}
  m_ScaleInLightmap: 1
  m_PreserveUVs: 0
  m_IgnoreNormalsForChartDetection: 0
  m_ImportantGI: 0
  m_SelectedEditorRenderState: 3
  m_MinimumChartSize: 4
  m_AutoUVMaxDistance: 0.5
  m_AutoUVMaxAngle: 89
  m_LightmapParameters: {fileID: 0}
  m_SortingLayerID: 0
  m_SortingLayer: 0
  m_SortingOrder: 0
--- !u!33 &1840270056
MeshFilter:
  m_ObjectHideFlags: 0
  m_PrefabParentObject: {fileID: 3369722, guid: 7bbe5e1e81bf85c41851e99d0bbc3b3a,
    type: 2}
  m_PrefabInternal: {fileID: 1856640523}
  m_GameObject: {fileID: 1840270054}
  m_Mesh: {fileID: 4369722, guid: 7bbe5e1e81bf85c41851e99d0bbc3b3a, type: 2}
--- !u!193 &1840270057
Tree:
  m_ObjectHideFlags: 0
  m_PrefabParentObject: {fileID: 19369722, guid: 7bbe5e1e81bf85c41851e99d0bbc3b3a,
    type: 2}
  m_PrefabInternal: {fileID: 1856640523}
  m_GameObject: {fileID: 1840270054}
  m_SpeedTreeWindAsset: {fileID: 0}
  m_TreeData: {fileID: 11469722, guid: 7bbe5e1e81bf85c41851e99d0bbc3b3a, type: 2}
--- !u!4 &1840270058
Transform:
  m_ObjectHideFlags: 0
  m_PrefabParentObject: {fileID: 469722, guid: 7bbe5e1e81bf85c41851e99d0bbc3b3a, type: 2}
  m_PrefabInternal: {fileID: 1856640523}
  m_GameObject: {fileID: 1840270054}
  m_LocalRotation: {x: 0, y: 0, z: 0, w: 1}
  m_LocalPosition: {x: 14.849073, y: 0.35264805, z: 29.340487}
  m_LocalScale: {x: 1, y: 1, z: 1}
  m_Children: []
  m_Father: {fileID: 0}
  m_RootOrder: 7
  m_LocalEulerAnglesHint: {x: 0, y: 0, z: 0}
--- !u!1 &1846695583
GameObject:
  m_ObjectHideFlags: 0
  m_PrefabParentObject: {fileID: 189938, guid: e0e01ec14bfc6404e8471dc85cadfebd, type: 2}
  m_PrefabInternal: {fileID: 243915501}
  serializedVersion: 5
  m_Component:
  - component: {fileID: 1846695588}
  - component: {fileID: 1846695587}
  - component: {fileID: 1846695586}
  - component: {fileID: 1846695585}
  - component: {fileID: 1846695584}
  m_Layer: 0
  m_Name: BroadLeaf02a3
  m_TagString: Untagged
  m_Icon: {fileID: 0}
  m_NavMeshLayer: 0
  m_StaticEditorFlags: 0
  m_IsActive: 1
--- !u!65 &1846695584
BoxCollider:
  m_ObjectHideFlags: 0
  m_PrefabParentObject: {fileID: 6593670, guid: e0e01ec14bfc6404e8471dc85cadfebd,
    type: 2}
  m_PrefabInternal: {fileID: 243915501}
  m_GameObject: {fileID: 1846695583}
  m_Material: {fileID: 0}
  m_IsTrigger: 0
  m_Enabled: 1
  serializedVersion: 2
  m_Size: {x: 1.31, y: 3.96, z: 1.47}
  m_Center: {x: 0.26, y: 2.64, z: 0.3327905}
--- !u!23 &1846695585
MeshRenderer:
  m_ObjectHideFlags: 0
  m_PrefabParentObject: {fileID: 2389938, guid: e0e01ec14bfc6404e8471dc85cadfebd,
    type: 2}
  m_PrefabInternal: {fileID: 243915501}
  m_GameObject: {fileID: 1846695583}
  m_Enabled: 1
  m_CastShadows: 1
  m_ReceiveShadows: 1
  m_MotionVectors: 1
  m_LightProbeUsage: 0
  m_ReflectionProbeUsage: 1
  m_Materials:
  - {fileID: 2189938, guid: e0e01ec14bfc6404e8471dc85cadfebd, type: 2}
  - {fileID: 2189936, guid: e0e01ec14bfc6404e8471dc85cadfebd, type: 2}
  m_StaticBatchInfo:
    firstSubMesh: 0
    subMeshCount: 0
  m_StaticBatchRoot: {fileID: 0}
  m_ProbeAnchor: {fileID: 0}
  m_LightProbeVolumeOverride: {fileID: 0}
  m_ScaleInLightmap: 1
  m_PreserveUVs: 0
  m_IgnoreNormalsForChartDetection: 0
  m_ImportantGI: 0
  m_SelectedEditorRenderState: 3
  m_MinimumChartSize: 4
  m_AutoUVMaxDistance: 0.5
  m_AutoUVMaxAngle: 89
  m_LightmapParameters: {fileID: 0}
  m_SortingLayerID: 0
  m_SortingLayer: 0
  m_SortingOrder: 0
--- !u!33 &1846695586
MeshFilter:
  m_ObjectHideFlags: 0
  m_PrefabParentObject: {fileID: 3389938, guid: e0e01ec14bfc6404e8471dc85cadfebd,
    type: 2}
  m_PrefabInternal: {fileID: 243915501}
  m_GameObject: {fileID: 1846695583}
  m_Mesh: {fileID: 4389938, guid: e0e01ec14bfc6404e8471dc85cadfebd, type: 2}
--- !u!193 &1846695587
Tree:
  m_ObjectHideFlags: 0
  m_PrefabParentObject: {fileID: 19389938, guid: e0e01ec14bfc6404e8471dc85cadfebd,
    type: 2}
  m_PrefabInternal: {fileID: 243915501}
  m_GameObject: {fileID: 1846695583}
  m_SpeedTreeWindAsset: {fileID: 0}
  m_TreeData: {fileID: 11489938, guid: e0e01ec14bfc6404e8471dc85cadfebd, type: 2}
--- !u!4 &1846695588
Transform:
  m_ObjectHideFlags: 0
  m_PrefabParentObject: {fileID: 489938, guid: e0e01ec14bfc6404e8471dc85cadfebd, type: 2}
  m_PrefabInternal: {fileID: 243915501}
  m_GameObject: {fileID: 1846695583}
  m_LocalRotation: {x: 0, y: 0, z: 0, w: 1}
  m_LocalPosition: {x: 28.837917, y: -2.0547686e-17, z: 19.261559}
  m_LocalScale: {x: 1, y: 1, z: 1}
  m_Children: []
  m_Father: {fileID: 0}
  m_RootOrder: 8
  m_LocalEulerAnglesHint: {x: 0, y: 0, z: 0}
--- !u!1001 &1856640523
Prefab:
  m_ObjectHideFlags: 0
  serializedVersion: 2
  m_Modification:
    m_TransformParent: {fileID: 0}
    m_Modifications:
    - target: {fileID: 469722, guid: 7bbe5e1e81bf85c41851e99d0bbc3b3a, type: 2}
      propertyPath: m_LocalPosition.x
      value: 14.8490734
      objectReference: {fileID: 0}
    - target: {fileID: 469722, guid: 7bbe5e1e81bf85c41851e99d0bbc3b3a, type: 2}
      propertyPath: m_LocalPosition.y
      value: .35264805
      objectReference: {fileID: 0}
    - target: {fileID: 469722, guid: 7bbe5e1e81bf85c41851e99d0bbc3b3a, type: 2}
      propertyPath: m_LocalPosition.z
      value: 29.3404865
      objectReference: {fileID: 0}
    - target: {fileID: 469722, guid: 7bbe5e1e81bf85c41851e99d0bbc3b3a, type: 2}
      propertyPath: m_LocalRotation.x
      value: 0
      objectReference: {fileID: 0}
    - target: {fileID: 469722, guid: 7bbe5e1e81bf85c41851e99d0bbc3b3a, type: 2}
      propertyPath: m_LocalRotation.y
      value: 0
      objectReference: {fileID: 0}
    - target: {fileID: 469722, guid: 7bbe5e1e81bf85c41851e99d0bbc3b3a, type: 2}
      propertyPath: m_LocalRotation.z
      value: 0
      objectReference: {fileID: 0}
    - target: {fileID: 469722, guid: 7bbe5e1e81bf85c41851e99d0bbc3b3a, type: 2}
      propertyPath: m_LocalRotation.w
      value: 1
      objectReference: {fileID: 0}
    - target: {fileID: 469722, guid: 7bbe5e1e81bf85c41851e99d0bbc3b3a, type: 2}
      propertyPath: m_RootOrder
      value: 0
      objectReference: {fileID: 0}
    m_RemovedComponents: []
  m_ParentPrefab: {fileID: 100100000, guid: 7bbe5e1e81bf85c41851e99d0bbc3b3a, type: 2}
  m_RootGameObject: {fileID: 1840270054}
  m_IsPrefabParent: 0
--- !u!1 &1883692232
GameObject:
  m_ObjectHideFlags: 0
  m_PrefabParentObject: {fileID: 178102, guid: c2d3008dd6678c64ca97c8affdc7c2e6, type: 2}
  m_PrefabInternal: {fileID: 1905186663}
  serializedVersion: 5
  m_Component:
  - component: {fileID: 1883692236}
  - component: {fileID: 1883692235}
  - component: {fileID: 1883692234}
  - component: {fileID: 1883692233}
  m_Layer: 0
  m_Name: BroadLeaf01b2
  m_TagString: Untagged
  m_Icon: {fileID: 0}
  m_NavMeshLayer: 0
  m_StaticEditorFlags: 0
  m_IsActive: 1
--- !u!23 &1883692233
MeshRenderer:
  m_ObjectHideFlags: 0
  m_PrefabParentObject: {fileID: 2378102, guid: c2d3008dd6678c64ca97c8affdc7c2e6,
    type: 2}
  m_PrefabInternal: {fileID: 1905186663}
  m_GameObject: {fileID: 1883692232}
  m_Enabled: 1
  m_CastShadows: 1
  m_ReceiveShadows: 1
  m_MotionVectors: 1
  m_LightProbeUsage: 0
  m_ReflectionProbeUsage: 1
  m_Materials:
  - {fileID: 2178102, guid: c2d3008dd6678c64ca97c8affdc7c2e6, type: 2}
  - {fileID: 2178100, guid: c2d3008dd6678c64ca97c8affdc7c2e6, type: 2}
  m_StaticBatchInfo:
    firstSubMesh: 0
    subMeshCount: 0
  m_StaticBatchRoot: {fileID: 0}
  m_ProbeAnchor: {fileID: 0}
  m_LightProbeVolumeOverride: {fileID: 0}
  m_ScaleInLightmap: 1
  m_PreserveUVs: 0
  m_IgnoreNormalsForChartDetection: 0
  m_ImportantGI: 0
  m_SelectedEditorRenderState: 3
  m_MinimumChartSize: 4
  m_AutoUVMaxDistance: 0.5
  m_AutoUVMaxAngle: 89
  m_LightmapParameters: {fileID: 0}
  m_SortingLayerID: 0
  m_SortingLayer: 0
  m_SortingOrder: 0
--- !u!33 &1883692234
MeshFilter:
  m_ObjectHideFlags: 0
  m_PrefabParentObject: {fileID: 3378102, guid: c2d3008dd6678c64ca97c8affdc7c2e6,
    type: 2}
  m_PrefabInternal: {fileID: 1905186663}
  m_GameObject: {fileID: 1883692232}
  m_Mesh: {fileID: 4378102, guid: c2d3008dd6678c64ca97c8affdc7c2e6, type: 2}
--- !u!193 &1883692235
Tree:
  m_ObjectHideFlags: 0
  m_PrefabParentObject: {fileID: 19378102, guid: c2d3008dd6678c64ca97c8affdc7c2e6,
    type: 2}
  m_PrefabInternal: {fileID: 1905186663}
  m_GameObject: {fileID: 1883692232}
  m_SpeedTreeWindAsset: {fileID: 0}
  m_TreeData: {fileID: 11478102, guid: c2d3008dd6678c64ca97c8affdc7c2e6, type: 2}
--- !u!4 &1883692236
Transform:
  m_ObjectHideFlags: 0
  m_PrefabParentObject: {fileID: 478102, guid: c2d3008dd6678c64ca97c8affdc7c2e6, type: 2}
  m_PrefabInternal: {fileID: 1905186663}
  m_GameObject: {fileID: 1883692232}
  m_LocalRotation: {x: 0, y: 0, z: 0, w: 1}
  m_LocalPosition: {x: 40.81, y: -0, z: 37.86}
  m_LocalScale: {x: 1, y: 1, z: 1}
  m_Children: []
  m_Father: {fileID: 0}
  m_RootOrder: 9
  m_LocalEulerAnglesHint: {x: 0, y: 0, z: 0}
--- !u!1001 &1905186663
Prefab:
  m_ObjectHideFlags: 0
  serializedVersion: 2
  m_Modification:
    m_TransformParent: {fileID: 0}
    m_Modifications:
    - target: {fileID: 478102, guid: c2d3008dd6678c64ca97c8affdc7c2e6, type: 2}
      propertyPath: m_LocalPosition.x
      value: 40.8100014
      objectReference: {fileID: 0}
    - target: {fileID: 478102, guid: c2d3008dd6678c64ca97c8affdc7c2e6, type: 2}
      propertyPath: m_LocalPosition.y
      value: -0
      objectReference: {fileID: 0}
    - target: {fileID: 478102, guid: c2d3008dd6678c64ca97c8affdc7c2e6, type: 2}
      propertyPath: m_LocalPosition.z
      value: 37.8600006
      objectReference: {fileID: 0}
    - target: {fileID: 478102, guid: c2d3008dd6678c64ca97c8affdc7c2e6, type: 2}
      propertyPath: m_LocalRotation.x
      value: 0
      objectReference: {fileID: 0}
    - target: {fileID: 478102, guid: c2d3008dd6678c64ca97c8affdc7c2e6, type: 2}
      propertyPath: m_LocalRotation.y
      value: 0
      objectReference: {fileID: 0}
    - target: {fileID: 478102, guid: c2d3008dd6678c64ca97c8affdc7c2e6, type: 2}
      propertyPath: m_LocalRotation.z
      value: 0
      objectReference: {fileID: 0}
    - target: {fileID: 478102, guid: c2d3008dd6678c64ca97c8affdc7c2e6, type: 2}
      propertyPath: m_LocalRotation.w
      value: 1
      objectReference: {fileID: 0}
    - target: {fileID: 478102, guid: c2d3008dd6678c64ca97c8affdc7c2e6, type: 2}
      propertyPath: m_RootOrder
      value: 0
      objectReference: {fileID: 0}
    m_RemovedComponents: []
  m_ParentPrefab: {fileID: 100100000, guid: c2d3008dd6678c64ca97c8affdc7c2e6, type: 2}
  m_RootGameObject: {fileID: 1883692232}
  m_IsPrefabParent: 0
--- !u!1 &1915887478
GameObject:
  m_ObjectHideFlags: 0
  m_PrefabParentObject: {fileID: 100004, guid: 9d4133d5d30b644bd87802a347eaccbe, type: 2}
  m_PrefabInternal: {fileID: 1627435093}
  serializedVersion: 5
  m_Component:
  - component: {fileID: 1915887479}
  - component: {fileID: 1915887484}
  - component: {fileID: 1915887483}
  - component: {fileID: 1915887482}
  - component: {fileID: 1915887481}
  - component: {fileID: 1915887480}
  m_Layer: 0
  m_Name: Main Camera
  m_TagString: MainCamera
  m_Icon: {fileID: 0}
  m_NavMeshLayer: 0
  m_StaticEditorFlags: 0
  m_IsActive: 1
--- !u!4 &1915887479
Transform:
  m_ObjectHideFlags: 0
  m_PrefabParentObject: {fileID: 400004, guid: 9d4133d5d30b644bd87802a347eaccbe, type: 2}
  m_PrefabInternal: {fileID: 1627435093}
  m_GameObject: {fileID: 1915887478}
  m_LocalRotation: {x: 0, y: 0, z: 0, w: 1}
  m_LocalPosition: {x: 0, y: 0.9070835, z: 0}
  m_LocalScale: {x: 1, y: 1, z: 1}
  m_Children: []
  m_Father: {fileID: 1520687153}
  m_RootOrder: 1
  m_LocalEulerAnglesHint: {x: 0, y: 0, z: 0}
--- !u!81 &1915887480
AudioListener:
  m_ObjectHideFlags: 0
  m_PrefabParentObject: {fileID: 8100000, guid: 9d4133d5d30b644bd87802a347eaccbe,
    type: 2}
  m_PrefabInternal: {fileID: 1627435093}
  m_GameObject: {fileID: 1915887478}
  m_Enabled: 1
--- !u!114 &1915887481
MonoBehaviour:
  m_ObjectHideFlags: 0
  m_PrefabParentObject: {fileID: 11400006, guid: 9d4133d5d30b644bd87802a347eaccbe,
    type: 2}
  m_PrefabInternal: {fileID: 1627435093}
  m_GameObject: {fileID: 1915887478}
  m_Enabled: 1
  m_EditorHideFlags: 0
  m_Script: {fileID: 11500000, guid: 68ec2fe99d1108b9d0006a298d76c639, type: 3}
  m_Name: 
  m_EditorClassIdentifier: 
  axes: 2
  sensitivityX: 10
  sensitivityY: 10
  minimumX: 0
  maximumX: 360
  minimumY: -60
  maximumY: 60
--- !u!124 &1915887482
Behaviour:
  m_ObjectHideFlags: 0
  m_PrefabParentObject: {fileID: 12400000, guid: 9d4133d5d30b644bd87802a347eaccbe,
    type: 2}
  m_PrefabInternal: {fileID: 1627435093}
  m_GameObject: {fileID: 1915887478}
  m_Enabled: 1
--- !u!92 &1915887483
Behaviour:
  m_ObjectHideFlags: 0
  m_PrefabParentObject: {fileID: 9200000, guid: 9d4133d5d30b644bd87802a347eaccbe,
    type: 2}
  m_PrefabInternal: {fileID: 1627435093}
  m_GameObject: {fileID: 1915887478}
  m_Enabled: 1
--- !u!20 &1915887484
Camera:
  m_ObjectHideFlags: 0
  m_PrefabParentObject: {fileID: 2000000, guid: 9d4133d5d30b644bd87802a347eaccbe,
    type: 2}
  m_PrefabInternal: {fileID: 1627435093}
  m_GameObject: {fileID: 1915887478}
  m_Enabled: 1
  serializedVersion: 2
  m_ClearFlags: 1
  m_BackGroundColor: {r: 0.2784314, g: 0.2784314, b: 0.2784314, a: 1}
  m_NormalizedViewPortRect:
    serializedVersion: 2
    x: 0
    y: 0
    width: 1
    height: 1
  near clip plane: 0.3
  far clip plane: 1000
  field of view: 70
  orthographic: 0
  orthographic size: 100
  m_Depth: 0
  m_CullingMask:
    serializedVersion: 2
    m_Bits: 4294967295
  m_RenderingPath: -1
  m_TargetTexture: {fileID: 0}
  m_TargetDisplay: 0
  m_TargetEye: 3
  m_HDR: 1
  m_AllowMSAA: 1
  m_ForceIntoRT: 0
  m_OcclusionCulling: 1
  m_StereoConvergence: 10
  m_StereoSeparation: 0.022
  m_StereoMirrorMode: 0
--- !u!1001 &2001587454
Prefab:
  m_ObjectHideFlags: 0
  serializedVersion: 2
  m_Modification:
    m_TransformParent: {fileID: 0}
    m_Modifications:
    - target: {fileID: 438244, guid: c370a91b345318d4eac7637d8ad2b05a, type: 2}
      propertyPath: m_LocalPosition.x
      value: 48.5499992
      objectReference: {fileID: 0}
    - target: {fileID: 438244, guid: c370a91b345318d4eac7637d8ad2b05a, type: 2}
      propertyPath: m_LocalPosition.y
      value: -0
      objectReference: {fileID: 0}
    - target: {fileID: 438244, guid: c370a91b345318d4eac7637d8ad2b05a, type: 2}
      propertyPath: m_LocalPosition.z
      value: 21.5699997
      objectReference: {fileID: 0}
    - target: {fileID: 438244, guid: c370a91b345318d4eac7637d8ad2b05a, type: 2}
      propertyPath: m_LocalRotation.x
      value: 0
      objectReference: {fileID: 0}
    - target: {fileID: 438244, guid: c370a91b345318d4eac7637d8ad2b05a, type: 2}
      propertyPath: m_LocalRotation.y
      value: 0
      objectReference: {fileID: 0}
    - target: {fileID: 438244, guid: c370a91b345318d4eac7637d8ad2b05a, type: 2}
      propertyPath: m_LocalRotation.z
      value: 0
      objectReference: {fileID: 0}
    - target: {fileID: 438244, guid: c370a91b345318d4eac7637d8ad2b05a, type: 2}
      propertyPath: m_LocalRotation.w
      value: 1
      objectReference: {fileID: 0}
    - target: {fileID: 438244, guid: c370a91b345318d4eac7637d8ad2b05a, type: 2}
      propertyPath: m_RootOrder
      value: 0
      objectReference: {fileID: 0}
    m_RemovedComponents: []
  m_ParentPrefab: {fileID: 100100000, guid: c370a91b345318d4eac7637d8ad2b05a, type: 2}
  m_RootGameObject: {fileID: 1033219319}
  m_IsPrefabParent: 0
--- !u!1 &2010105457
GameObject:
  m_ObjectHideFlags: 0
  m_PrefabParentObject: {fileID: 0}
  m_PrefabInternal: {fileID: 0}
  serializedVersion: 5
  m_Component:
  - component: {fileID: 2010105461}
  - component: {fileID: 2010105460}
  - component: {fileID: 2010105459}
  - component: {fileID: 2010105458}
  m_Layer: 0
  m_Name: Plane
  m_TagString: Untagged
  m_Icon: {fileID: 0}
  m_NavMeshLayer: 0
  m_StaticEditorFlags: 0
  m_IsActive: 1
--- !u!23 &2010105458
MeshRenderer:
  m_ObjectHideFlags: 0
  m_PrefabParentObject: {fileID: 0}
  m_PrefabInternal: {fileID: 0}
  m_GameObject: {fileID: 2010105457}
  m_Enabled: 1
  m_CastShadows: 1
  m_ReceiveShadows: 1
  m_MotionVectors: 1
  m_LightProbeUsage: 0
  m_ReflectionProbeUsage: 1
  m_Materials:
  - {fileID: 2100000, guid: 42ff3d88969435943a4008a8e6971b85, type: 2}
  m_StaticBatchInfo:
    firstSubMesh: 0
    subMeshCount: 0
  m_StaticBatchRoot: {fileID: 0}
  m_ProbeAnchor: {fileID: 0}
  m_LightProbeVolumeOverride: {fileID: 0}
  m_ScaleInLightmap: 1
  m_PreserveUVs: 0
  m_IgnoreNormalsForChartDetection: 0
  m_ImportantGI: 0
  m_SelectedEditorRenderState: 3
  m_MinimumChartSize: 4
  m_AutoUVMaxDistance: 0.5
  m_AutoUVMaxAngle: 89
  m_LightmapParameters: {fileID: 0}
  m_SortingLayerID: 0
  m_SortingLayer: 0
  m_SortingOrder: 0
--- !u!64 &2010105459
MeshCollider:
  m_ObjectHideFlags: 0
  m_PrefabParentObject: {fileID: 0}
  m_PrefabInternal: {fileID: 0}
  m_GameObject: {fileID: 2010105457}
  m_Material: {fileID: 0}
  m_IsTrigger: 0
  m_Enabled: 1
  serializedVersion: 2
  m_Convex: 0
  m_InflateMesh: 0
  m_SkinWidth: 0.01
  m_Mesh: {fileID: 10209, guid: 0000000000000000e000000000000000, type: 0}
--- !u!33 &2010105460
MeshFilter:
  m_ObjectHideFlags: 0
  m_PrefabParentObject: {fileID: 0}
  m_PrefabInternal: {fileID: 0}
  m_GameObject: {fileID: 2010105457}
  m_Mesh: {fileID: 10209, guid: 0000000000000000e000000000000000, type: 0}
--- !u!4 &2010105461
Transform:
  m_ObjectHideFlags: 0
  m_PrefabParentObject: {fileID: 0}
  m_PrefabInternal: {fileID: 0}
  m_GameObject: {fileID: 2010105457}
  m_LocalRotation: {x: 0, y: 0, z: 0, w: 1}
  m_LocalPosition: {x: 0, y: 0, z: 0}
  m_LocalScale: {x: 100, y: 1, z: 100}
  m_Children: []
  m_Father: {fileID: 0}
  m_RootOrder: 16
  m_LocalEulerAnglesHint: {x: 0, y: 0, z: 0}
--- !u!1 &2033410513
GameObject:
  m_ObjectHideFlags: 0
  m_PrefabParentObject: {fileID: 0}
  m_PrefabInternal: {fileID: 0}
  serializedVersion: 5
  m_Component:
  - component: {fileID: 2033410515}
  - component: {fileID: 2033410514}
  m_Layer: 0
  m_Name: Directional light
  m_TagString: Untagged
  m_Icon: {fileID: 0}
  m_NavMeshLayer: 0
  m_StaticEditorFlags: 0
  m_IsActive: 1
--- !u!108 &2033410514
Light:
  m_ObjectHideFlags: 0
  m_PrefabParentObject: {fileID: 0}
  m_PrefabInternal: {fileID: 0}
  m_GameObject: {fileID: 2033410513}
  m_Enabled: 1
  serializedVersion: 8
  m_Type: 1
  m_Color: {r: 1, g: 1, b: 1, a: 1}
  m_Intensity: 1
  m_Range: 10
  m_SpotAngle: 30
  m_CookieSize: 10
  m_Shadows:
    m_Type: 2
    m_Resolution: -1
    m_CustomResolution: -1
    m_Strength: 1
    m_Bias: 0.05
    m_NormalBias: 0.4
    m_NearPlane: 0.2
  m_Cookie: {fileID: 0}
  m_DrawHalo: 0
  m_Flare: {fileID: 0}
  m_RenderMode: 0
  m_CullingMask:
    serializedVersion: 2
    m_Bits: 4294967295
  m_Lightmapping: 1
  m_AreaSize: {x: 1, y: 1}
  m_BounceIntensity: 1
  m_FalloffTable:
    m_Table[0]: 0
    m_Table[1]: 0
    m_Table[2]: 0
    m_Table[3]: 0
    m_Table[4]: 0
    m_Table[5]: 0
    m_Table[6]: 0
    m_Table[7]: 0
    m_Table[8]: 0
    m_Table[9]: 0
    m_Table[10]: 0
    m_Table[11]: 0
    m_Table[12]: 0
  m_ColorTemperature: 6570
  m_UseColorTemperature: 0
  m_ShadowRadius: 0
  m_ShadowAngle: 0
--- !u!4 &2033410515
Transform:
  m_ObjectHideFlags: 0
  m_PrefabParentObject: {fileID: 0}
  m_PrefabInternal: {fileID: 0}
  m_GameObject: {fileID: 2033410513}
  m_LocalRotation: {x: 0.22422676, y: -0.76822615, z: 0.35822976, w: 0.48085606}
  m_LocalPosition: {x: 65.21, y: 7.6, z: 3.69}
  m_LocalScale: {x: 1, y: 1, z: 1}
  m_Children: []
  m_Father: {fileID: 0}
  m_RootOrder: 17
  m_LocalEulerAnglesHint: {x: 0, y: 0, z: 0}
